%!PS-Adobe-3.0 EPSF-3.0
%%Creator: MATLAB, The MathWorks, Inc. Version 8.1.0.604 (R2013a). Operating System: Microsoft Windows 8.
%%Title: ..\Images\Notes\smith_chart_input_impedance.eps
%%CreationDate: 05/31/2015  13:06:28
%%DocumentNeededFonts: Helvetica
%%DocumentProcessColors: Cyan Magenta Yellow Black
%%LanguageLevel: 2
%%Pages: 1
%%BoundingBox:    88   264   505   577
%%EndComments

%%BeginProlog
% MathWorks dictionary
/MathWorks 160 dict begin
% definition operators
/bdef {bind def} bind def
/ldef {load def} bind def
/xdef {exch def} bdef
/xstore {exch store} bdef
% operator abbreviations
/c  /clip ldef
/cc /concat ldef
/cp /closepath ldef
/gr /grestore ldef
/gs /gsave ldef
/mt /moveto ldef
/np /newpath ldef
/cm /currentmatrix ldef
/sm /setmatrix ldef
/rm /rmoveto ldef
/rl /rlineto ldef
/s {show newpath} bdef
/sc {setcmykcolor} bdef
/sr /setrgbcolor ldef
/sg /setgray ldef
/w /setlinewidth ldef
/j /setlinejoin ldef
/cap /setlinecap ldef
/rc {rectclip} bdef
/rf {rectfill} bdef
% page state control
/pgsv () def
/bpage {/pgsv save def} bdef
/epage {pgsv restore} bdef
/bplot /gsave ldef
/eplot {stroke grestore} bdef
% orientation switch
/portraitMode 0 def /landscapeMode 1 def /rotateMode 2 def
% coordinate system mappings
/dpi2point 0 def
% font control
/FontSize 0 def
/FMS {/FontSize xstore findfont [FontSize 0 0 FontSize neg 0 0]
  makefont setfont} bdef
/ISOLatin1Encoding where {pop /WindowsLatin1Encoding 256 array bdef
ISOLatin1Encoding WindowsLatin1Encoding copy pop
/.notdef/.notdef/quotesinglbase/florin/quotedblbase/ellipsis/dagger
/daggerdbl/circumflex/perthousand/Scaron/guilsinglleft/OE/.notdef/.notdef
/.notdef/.notdef/quoteleft/quoteright/quotedblleft/quotedblright/bullet
/endash/emdash/tilde/trademark/scaron/guilsinglright/oe/.notdef/.notdef
/Ydieresis WindowsLatin1Encoding 128 32 getinterval astore pop}
{/WindowsLatin1Encoding StandardEncoding bdef} ifelse
/reencode {exch dup where {pop load} {pop StandardEncoding} ifelse
  exch dup 3 1 roll findfont dup length dict begin
  { 1 index /FID ne {def}{pop pop} ifelse } forall
  /Encoding exch def currentdict end definefont pop} bdef
/isroman {findfont /CharStrings get /Agrave known} bdef
/FMSR {3 1 roll 1 index dup isroman {reencode} {pop pop} ifelse
  exch FMS} bdef
/csm {1 dpi2point div -1 dpi2point div scale neg translate
 dup landscapeMode eq {pop -90 rotate}
  {rotateMode eq {90 rotate} if} ifelse} bdef
% line types: solid, dotted, dashed, dotdash
/SO { [] 0 setdash } bdef
/DO { [.5 dpi2point mul 4 dpi2point mul] 0 setdash } bdef
/DA { [6 dpi2point mul] 0 setdash } bdef
/DD { [.5 dpi2point mul 4 dpi2point mul 6 dpi2point mul 4
  dpi2point mul] 0 setdash } bdef
% macros for lines and objects
/L {lineto stroke} bdef
/MP {3 1 roll moveto 1 sub {rlineto} repeat} bdef
/AP {{rlineto} repeat} bdef
/PDlw -1 def
/W {/PDlw currentlinewidth def setlinewidth} def
/PP {closepath eofill} bdef
/DP {closepath stroke} bdef
/MR {4 -2 roll moveto dup  0 exch rlineto exch 0 rlineto
  neg 0 exch rlineto closepath} bdef
/FR {MR stroke} bdef
/PR {MR fill} bdef
/L1i {{currentfile picstr readhexstring pop} image} bdef
/tMatrix matrix def
/MakeOval {newpath tMatrix currentmatrix pop translate scale
0 0 1 0 360 arc tMatrix setmatrix} bdef
/FO {MakeOval stroke} bdef
/PO {MakeOval fill} bdef
/PD {currentlinewidth 2 div 0 360 arc fill
   PDlw -1 eq not {PDlw w /PDlw -1 def} if} def
/FA {newpath tMatrix currentmatrix pop translate scale
  0 0 1 5 -2 roll arc tMatrix setmatrix stroke} bdef
/PA {newpath tMatrix currentmatrix pop	translate 0 0 moveto scale
  0 0 1 5 -2 roll arc closepath tMatrix setmatrix fill} bdef
/FAn {newpath tMatrix currentmatrix pop translate scale
  0 0 1 5 -2 roll arcn tMatrix setmatrix stroke} bdef
/PAn {newpath tMatrix currentmatrix pop translate 0 0 moveto scale
  0 0 1 5 -2 roll arcn closepath tMatrix setmatrix fill} bdef
/vradius 0 def /hradius 0 def /lry 0 def
/lrx 0 def /uly 0 def /ulx 0 def /rad 0 def
/MRR {/vradius xdef /hradius xdef /lry xdef /lrx xdef /uly xdef
  /ulx xdef newpath tMatrix currentmatrix pop ulx hradius add uly
  vradius add translate hradius vradius scale 0 0 1 180 270 arc 
  tMatrix setmatrix lrx hradius sub uly vradius add translate
  hradius vradius scale 0 0 1 270 360 arc tMatrix setmatrix
  lrx hradius sub lry vradius sub translate hradius vradius scale
  0 0 1 0 90 arc tMatrix setmatrix ulx hradius add lry vradius sub
  translate hradius vradius scale 0 0 1 90 180 arc tMatrix setmatrix
  closepath} bdef
/FRR {MRR stroke } bdef
/PRR {MRR fill } bdef
/MlrRR {/lry xdef /lrx xdef /uly xdef /ulx xdef /rad lry uly sub 2 div def
  newpath tMatrix currentmatrix pop ulx rad add uly rad add translate
  rad rad scale 0 0 1 90 270 arc tMatrix setmatrix lrx rad sub lry rad
  sub translate rad rad scale 0 0 1 270 90 arc tMatrix setmatrix
  closepath} bdef
/FlrRR {MlrRR stroke } bdef
/PlrRR {MlrRR fill } bdef
/MtbRR {/lry xdef /lrx xdef /uly xdef /ulx xdef /rad lrx ulx sub 2 div def
  newpath tMatrix currentmatrix pop ulx rad add uly rad add translate
  rad rad scale 0 0 1 180 360 arc tMatrix setmatrix lrx rad sub lry rad
  sub translate rad rad scale 0 0 1 0 180 arc tMatrix setmatrix
  closepath} bdef
/FtbRR {MtbRR stroke } bdef
/PtbRR {MtbRR fill } bdef
/stri 6 array def /dtri 6 array def
/smat 6 array def /dmat 6 array def
/tmat1 6 array def /tmat2 6 array def /dif 3 array def
/asub {/ind2 exch def /ind1 exch def dup dup
  ind1 get exch ind2 get sub exch } bdef
/tri_to_matrix {
  2 0 asub 3 1 asub 4 0 asub 5 1 asub
  dup 0 get exch 1 get 7 -1 roll astore } bdef
/compute_transform {
  dmat dtri tri_to_matrix tmat1 invertmatrix 
  smat stri tri_to_matrix tmat2 concatmatrix } bdef
/ds {stri astore pop} bdef
/dt {dtri astore pop} bdef
/db {2 copy /cols xdef /rows xdef mul dup 3 mul string
  currentfile 
  3 index 0 eq {/ASCIIHexDecode filter}
  {/ASCII85Decode filter 3 index 2 eq {/RunLengthDecode filter} if }
  ifelse exch readstring pop
  dup 0 3 index getinterval /rbmap xdef
  dup 2 index dup getinterval /gbmap xdef
  1 index dup 2 mul exch getinterval /bbmap xdef pop pop}bdef
/it {gs np dtri aload pop moveto lineto lineto cp c
  cols rows 8 compute_transform 
  rbmap gbmap bbmap true 3 colorimage gr}bdef
/il {newpath moveto lineto stroke}bdef
currentdict end def
%%EndProlog

%%BeginSetup
MathWorks begin

0 cap

end
%%EndSetup

%%Page: 1 1
%%BeginPageSetup
%%PageBoundingBox:    88   264   505   577
MathWorks begin
bpage
%%EndPageSetup

%%BeginObject: obj1
bplot

/dpi2point 12 def
portraitMode 1056 6924 csm

    0     0  5005  3755 rc
88 dict begin %Colortable dictionary
/c0 { 0.000000 0.000000 0.000000 sr} bdef
/c1 { 1.000000 1.000000 1.000000 sr} bdef
/c2 { 0.900000 0.000000 0.000000 sr} bdef
/c3 { 0.000000 0.820000 0.000000 sr} bdef
/c4 { 0.000000 0.000000 0.800000 sr} bdef
/c5 { 0.910000 0.820000 0.320000 sr} bdef
/c6 { 1.000000 0.260000 0.820000 sr} bdef
/c7 { 0.000000 0.820000 0.820000 sr} bdef
c0
1 j
1 sg
   0    0 5006 3756 rf
6 w
gs 1060 282 3061 3061 rc
9 -74 6 -74 1 -74 -1 -73 -6 -74 -9 -74 -13 -73 -16 -72 
-20 -71 -23 -70 -26 -69 -30 -68 -34 -66 -36 -64 -40 -63 -42 -60 
-46 -59 -48 -56 -51 -53 -54 -51 -56 -49 -58 -45 -61 -43 -62 -39 
-64 -37 -67 -33 -67 -30 -69 -27 -70 -23 -72 -20 -72 -16 -73 -13 
-73 -9 -74 -5 -74 -2 -74 2 -74 5 -73 9 -73 13 -72 16 
-72 20 -70 23 -69 27 -67 30 -67 33 -64 37 -62 39 -61 43 
-58 45 -56 49 -54 51 -51 53 -48 56 -46 59 -42 60 -40 63 
-36 64 -34 66 -30 68 -26 69 -23 70 -20 71 -16 72 -13 73 
-9 74 -6 74 -1 73 1 74 6 74 9 74 13 73 16 72 
20 71 23 70 26 69 30 68 34 66 36 64 40 63 42 60 
46 59 48 56 51 53 54 51 56 49 58 45 61 43 62 39 
64 37 67 33 67 30 69 27 70 23 72 20 72 16 73 13 
73 9 74 5 74 2 2590 304 100 MP
74 -2 74 -5 73 -9 73 -13 72 -16 72 -20 70 -23 69 -27 
67 -30 67 -33 64 -37 62 -39 61 -43 58 -45 56 -49 54 -51 
51 -53 48 -56 46 -59 42 -60 40 -63 36 -64 34 -66 30 -68 
26 -69 23 -70 20 -71 16 -72 13 -73 29 AP
PP
0 sg
0 0 74 -2 74 -5 73 -9 73 -13 72 -16 72 -20 70 -23 
69 -27 67 -30 67 -33 64 -37 62 -39 61 -43 58 -45 56 -49 
54 -51 51 -53 48 -56 46 -59 42 -60 40 -63 36 -64 34 -66 
30 -68 26 -69 23 -70 20 -71 16 -72 13 -73 9 -74 6 -74 
1 -74 -1 -73 -6 -74 -9 -74 -13 -73 -16 -72 -20 -71 -23 -70 
-26 -69 -30 -68 -34 -66 -36 -64 -40 -63 -42 -60 -46 -59 -48 -56 
-51 -53 -54 -51 -56 -49 -58 -45 -61 -43 -62 -39 -64 -37 -67 -33 
-67 -30 -69 -27 -70 -23 -72 -20 -72 -16 -73 -13 -73 -9 -74 -5 
-74 -2 -74 2 -74 5 -73 9 -73 13 -72 16 -72 20 -70 23 
-69 27 -67 30 -67 33 -64 37 -62 39 -61 43 -58 45 -56 49 
-54 51 -51 53 -48 56 -46 59 -42 60 -40 63 -36 64 -34 66 
-30 68 -26 69 -23 70 -20 71 -16 72 -13 73 -9 74 -6 74 
-1 73 1 74 6 74 9 74 13 73 16 72 20 71 23 70 
26 69 30 68 34 66 36 64 40 63 42 60 46 59 48 56 
51 53 54 51 56 49 58 45 61 43 62 39 64 37 67 33 
67 30 69 27 70 23 72 20 72 16 73 13 73 9 74 5 
74 2 2590 304 130 MP stroke
0.4 sg
2 0 1 0 2 0 1 -1 1 0 2 0 1 -1 1 0 
2 -1 1 0 1 -1 2 -1 1 -1 1 -1 1 -1 1 -1 
1 -1 1 -1 1 -1 1 -1 1 -1 0 -2 1 -1 0 -1 
1 -2 0 -1 1 -1 0 -3 1 -2 0 -5 -1 -2 0 -3 
-1 -1 0 -1 -1 -2 0 -1 -1 -1 0 -2 -1 -1 -1 -1 
-1 -1 -1 -1 -1 -1 -1 -1 -1 -1 -1 -1 -1 -1 -2 -1 
-1 -1 -1 0 -2 -1 -1 0 -1 -1 -2 0 -1 0 -1 -1 
-2 0 -1 0 -2 0 -1 0 -2 0 -1 0 -2 1 -1 0 
-1 0 -2 1 -1 0 -1 1 -2 0 -1 1 -1 1 -1 1 
-2 1 -1 1 -1 1 -1 1 -1 1 -1 1 0 1 -1 1 
-1 2 -1 1 0 1 -1 2 0 1 -1 1 0 15 1 1 
0 1 1 2 0 1 1 1 1 2 1 1 0 1 1 1 
1 1 1 1 1 1 1 1 2 1 1 1 1 1 1 1 
2 0 1 1 1 0 2 1 1 0 1 0 2 1 1 0 
2 0 1 0 4068 1782 115 MP stroke
1 0 1 0 1 0 1 0 1 0 1 0 1 1 1 0 
1 0 1 1 1 0 1 1 1 0 1 1 1 0 1 1 
1 1 1 1 1 1 2 1 1 2 2 2 1 2 1 3 
2 3 0 4 1 4 0 4 -1 5 -2 4 -2 5 -3 3 
-4 3 -3 3 -4 1 -3 2 -2 0 -2 1 -2 0 -1 0 
4096 1751 41 MP stroke
1 0 1 0 1 0 1 0 1 0 1 0 1 -1 1 0 
1 0 1 -1 1 0 1 -1 1 0 1 -1 1 0 1 -1 
1 -1 1 -1 1 -1 2 -1 1 -2 2 -2 1 -2 1 -3 
2 -3 0 -4 1 -4 0 -4 -1 -5 -2 -4 -2 -5 -3 -3 
-4 -3 -3 -3 -4 -1 -3 -2 -2 0 -2 -1 -2 0 -1 0 
4096 1872 41 MP stroke
25 -5 25 -5 24 -6 25 -6 25 -7 24 -7 25 -8 24 -9 
25 -9 24 -9 24 -11 24 -10 24 -11 24 -12 23 -12 23 -13 
23 -13 23 -14 22 -14 22 -14 22 -15 21 -16 21 -15 20 -17 
20 -16 20 -17 19 -17 19 -18 18 -18 18 -18 18 -18 16 -19 
17 -18 16 -19 15 -19 15 -19 14 -20 14 -19 14 -19 13 -20 
12 -19 12 -20 11 -19 11 -19 10 -20 10 -19 10 -19 9 -19 
8 -19 8 -18 8 -19 7 -18 7 -18 7 -17 6 -18 5 -17 
6 -17 5 -17 4 -16 5 -16 4 -16 3 -15 4 -15 3 -15 
3 -14 3 -14 2 -13 2 -14 2 -12 2 -13 2 -12 1 -11 
2 -12 1 -10 1 -11 1 -10 1 -9 0 -9 1 -9 1 -8 
0 -16 1 -7 0 -18 1 -6 0 -31 1585 1812 86 MP stroke
25 5 25 5 24 6 25 6 25 7 24 7 25 8 24 9 
25 9 24 9 24 11 24 10 24 11 24 12 23 12 23 13 
23 13 23 14 22 14 22 14 22 15 21 16 21 15 20 17 
20 16 20 17 19 17 19 18 18 18 18 18 18 18 16 19 
17 18 16 19 15 19 15 19 14 20 14 19 14 19 13 20 
12 19 12 20 11 19 11 19 10 20 10 19 10 19 9 19 
8 19 8 18 8 19 7 18 7 18 7 17 6 18 5 17 
6 17 5 17 4 16 5 16 4 16 3 15 4 15 3 15 
3 14 3 14 2 13 2 14 2 12 2 13 2 12 1 11 
2 12 1 10 1 11 1 10 1 9 0 9 1 9 1 8 
0 16 1 7 0 18 1 6 0 30 1585 1812 86 MP stroke
15 3 15 3 15 3 15 3 16 3 15 4 16 3 16 4 
16 3 16 4 16 3 16 4 17 4 16 4 17 4 17 4 
17 4 17 4 17 4 17 4 18 5 17 4 18 4 18 5 
17 5 18 4 18 5 18 5 18 5 19 5 18 5 18 5 
19 5 18 5 18 6 19 5 18 5 19 6 18 5 19 6 
18 5 19 6 18 6 19 6 18 5 19 6 18 6 18 6 
18 6 18 6 18 6 18 6 18 6 17 6 18 6 17 6 
17 5 17 6 17 6 16 6 17 6 16 6 16 6 15 5 
16 6 15 6 15 5 14 6 14 5 14 5 14 5 13 5 
12 5 13 5 12 5 12 4 11 5 11 4 10 4 10 4 
9 4 10 4 8 3 8 3 8 4 7 3 7 2 6 3 
5 2 5 2 5 2 4 2 4 1 3 1 2 1 2 1 
1 1 1 0 1199 1232 99 MP stroke
15 -3 15 -3 15 -3 15 -3 16 -3 15 -4 16 -3 16 -4 
16 -3 16 -4 16 -3 16 -4 17 -4 16 -4 17 -4 17 -4 
17 -4 17 -4 17 -4 17 -4 18 -5 17 -4 18 -4 18 -5 
17 -5 18 -4 18 -5 18 -5 18 -5 19 -5 18 -5 18 -5 
19 -5 18 -5 18 -6 19 -5 18 -5 19 -6 18 -5 19 -6 
18 -5 19 -6 18 -6 19 -6 18 -5 19 -6 18 -6 18 -6 
18 -6 18 -6 18 -6 18 -6 18 -6 17 -6 18 -6 17 -6 
17 -5 17 -6 17 -6 16 -6 17 -6 16 -6 16 -6 15 -5 
16 -6 15 -6 15 -5 14 -6 14 -5 14 -5 14 -5 13 -5 
12 -5 13 -5 12 -5 12 -4 11 -5 11 -4 10 -4 10 -4 
9 -4 10 -4 8 -3 8 -3 8 -4 7 -3 7 -2 6 -3 
5 -2 5 -2 5 -2 4 -2 4 -1 3 -1 2 -1 2 -1 
1 -1 1 0 1199 2391 99 MP stroke
19 6 19 5 20 4 20 5 21 4 21 3 21 4 21 2 
22 3 23 2 22 1 23 1 23 0 24 0 24 0 24 -2 
24 -2 24 -2 25 -3 25 -4 24 -4 25 -5 25 -6 25 -7 
25 -7 25 -7 25 -9 25 -9 24 -10 24 -10 25 -12 24 -12 
23 -12 23 -13 23 -14 23 -14 22 -15 21 -16 22 -16 20 -16 
20 -17 20 -17 19 -18 18 -18 18 -19 17 -18 17 -19 16 -19 
15 -20 15 -19 14 -20 13 -20 13 -19 12 -20 11 -19 11 -20 
10 -19 10 -20 9 -19 8 -19 8 -18 7 -19 7 -18 6 -18 
6 -17 5 -17 5 -17 5 -16 4 -16 3 -16 4 -15 3 -14 
3 -14 2 -14 2 -13 2 -13 2 -12 1 -11 2 -11 1 -11 
1 -10 0 -10 1 -9 1 -8 0 -15 1 -7 0 -40 2088 1812 88 MP stroke
19 -6 19 -5 20 -4 20 -5 21 -4 21 -3 21 -4 21 -2 
22 -3 23 -2 22 -1 23 -1 23 0 24 0 24 0 24 2 
24 2 24 2 25 3 25 4 24 4 25 5 25 6 25 7 
25 7 25 7 25 9 25 9 24 10 24 10 25 12 24 12 
23 12 23 13 23 14 23 14 22 15 21 16 22 16 20 16 
20 17 20 17 19 18 18 18 18 19 17 18 17 19 16 19 
15 20 15 19 14 20 13 20 13 19 12 20 11 19 11 20 
10 19 10 20 9 19 8 19 8 18 7 19 7 18 6 18 
6 17 5 17 5 17 5 16 4 16 3 16 4 15 3 14 
3 14 2 14 2 13 2 13 2 12 1 11 2 11 1 11 
1 10 0 10 1 9 1 8 0 15 1 7 0 39 2088 1812 88 MP stroke
13 5 13 4 13 5 13 5 13 4 13 5 14 6 14 5 
14 5 14 6 15 6 14 6 15 6 15 6 15 7 16 6 
15 7 16 7 16 7 16 8 17 7 16 8 17 8 17 8 
17 9 17 9 18 9 18 9 17 9 18 10 18 10 19 10 
18 10 19 11 18 11 19 11 19 11 19 12 19 12 20 12 
19 13 19 12 20 13 19 14 20 13 19 14 20 14 19 14 
20 14 19 15 20 15 19 15 19 15 20 15 19 16 19 16 
18 15 19 16 19 17 18 16 18 16 18 16 17 17 18 16 
17 17 17 16 16 16 16 16 16 16 15 16 15 16 15 16 
14 15 14 15 13 15 13 15 13 14 12 14 11 13 11 13 
11 13 10 12 9 11 9 11 8 11 8 9 7 10 7 8 
6 8 6 7 5 7 4 5 4 5 3 5 3 3 2 3 
1 2 1 1 1686 606 99 MP stroke
13 -5 13 -4 13 -5 13 -5 13 -4 13 -5 14 -6 14 -5 
14 -5 14 -6 15 -6 14 -6 15 -6 15 -6 15 -7 16 -6 
15 -7 16 -7 16 -7 16 -8 17 -7 16 -8 17 -8 17 -8 
17 -9 17 -9 18 -9 18 -9 17 -9 18 -10 18 -10 19 -10 
18 -10 19 -11 18 -11 19 -11 19 -11 19 -12 19 -12 20 -12 
19 -13 19 -12 20 -13 19 -14 20 -13 19 -14 20 -14 19 -14 
20 -14 19 -15 20 -15 19 -15 19 -15 20 -15 19 -16 19 -16 
18 -15 19 -16 19 -17 18 -16 18 -16 18 -16 17 -17 18 -16 
17 -17 17 -16 16 -16 16 -16 16 -16 15 -16 15 -16 15 -16 
14 -15 14 -15 13 -15 13 -15 13 -14 12 -14 11 -13 11 -13 
11 -13 10 -12 9 -11 9 -11 8 -11 8 -9 7 -10 7 -8 
6 -8 6 -7 5 -7 4 -5 4 -5 3 -5 3 -3 2 -3 
1 -2 1 -1 1686 3017 99 MP stroke
7 8 8 8 8 7 8 8 9 8 9 8 9 8 10 8 
10 9 10 8 11 8 11 8 12 8 12 8 13 8 13 8 
14 8 14 8 15 8 15 7 16 8 16 7 17 7 17 7 
18 6 19 6 19 6 20 5 20 5 21 4 21 4 22 3 
22 3 23 2 23 1 24 1 24 0 25 -1 24 -2 25 -2 
26 -4 25 -4 26 -5 25 -6 26 -8 26 -8 25 -9 25 -10 
25 -11 25 -12 24 -13 24 -14 23 -14 23 -16 21 -16 22 -17 
20 -17 20 -19 19 -18 18 -19 17 -20 16 -19 15 -20 15 -20 
13 -21 13 -20 12 -20 11 -20 10 -20 9 -19 8 -20 8 -19 
6 -18 7 -18 5 -18 5 -17 4 -16 4 -16 3 -15 3 -15 
3 -14 2 -13 2 -12 1 -12 1 -11 1 -11 1 -9 1 -9 
0 -15 1 -7 0 -25 2590 1812 92 MP stroke
7 -8 8 -8 8 -7 8 -8 9 -8 9 -8 9 -8 10 -8 
10 -9 10 -8 11 -8 11 -8 12 -8 12 -8 13 -8 13 -8 
14 -8 14 -8 15 -8 15 -7 16 -8 16 -7 17 -7 17 -7 
18 -6 19 -6 19 -6 20 -5 20 -5 21 -4 21 -4 22 -3 
22 -3 23 -2 23 -1 24 -1 24 0 25 1 24 2 25 2 
26 4 25 4 26 5 25 6 26 8 26 8 25 9 25 10 
25 11 25 12 24 13 24 14 23 14 23 16 21 16 22 17 
20 17 20 19 19 18 18 19 17 20 16 19 15 20 15 20 
13 21 13 20 12 20 11 20 10 20 9 19 8 20 8 19 
6 18 7 18 5 18 5 17 4 16 4 16 3 15 3 15 
3 14 2 13 2 12 1 12 1 11 1 11 1 9 1 9 
0 15 1 7 0 24 2590 1812 92 MP stroke
8 3 8 3 9 2 8 4 9 3 8 3 9 3 9 4 
10 4 9 4 10 4 10 4 10 4 10 5 10 5 11 5 
11 5 11 5 12 6 11 5 12 6 12 7 12 6 13 7 
13 7 13 8 13 8 13 8 14 8 14 9 14 9 14 9 
15 10 15 11 15 10 15 12 16 11 15 12 16 13 16 13 
16 13 16 14 17 15 16 15 17 16 17 16 16 17 17 17 
17 19 17 18 17 19 16 20 17 21 17 21 16 21 16 23 
16 23 16 23 15 24 16 24 14 25 15 26 14 25 13 27 
13 26 13 27 12 27 12 28 10 27 11 28 10 27 9 28 
8 27 8 27 7 27 7 26 6 27 5 25 5 25 5 24 
4 24 3 23 3 22 2 21 2 20 2 19 1 17 1 17 
1 15 1 14 0 12 1 12 0 37 2590 304 94 MP stroke
8 -3 8 -3 9 -2 8 -4 9 -3 8 -3 9 -3 9 -4 
10 -4 9 -4 10 -4 10 -4 10 -4 10 -5 10 -5 11 -5 
11 -5 11 -5 12 -6 11 -5 12 -6 12 -7 12 -6 13 -7 
13 -7 13 -8 13 -8 13 -8 14 -8 14 -9 14 -9 14 -9 
15 -10 15 -11 15 -10 15 -12 16 -11 15 -12 16 -13 16 -13 
16 -13 16 -14 17 -15 16 -15 17 -16 17 -16 16 -17 17 -17 
17 -19 17 -18 17 -19 16 -20 17 -21 17 -21 16 -21 16 -23 
16 -23 16 -23 15 -24 16 -24 14 -25 15 -26 14 -25 13 -27 
13 -26 13 -27 12 -27 12 -28 10 -27 11 -28 10 -27 9 -28 
8 -27 8 -27 7 -27 7 -26 6 -27 5 -25 5 -25 5 -24 
4 -24 3 -23 3 -22 2 -21 2 -20 2 -19 1 -17 1 -17 
1 -15 1 -14 0 -12 1 -12 0 -37 2590 3319 94 MP stroke
8 4 8 4 8 4 9 4 9 4 9 4 10 3 9 4 
10 3 11 3 10 4 11 2 11 3 11 2 12 3 11 2 
12 1 12 2 13 1 12 1 13 1 13 0 13 0 13 -1 
14 0 13 -1 14 -2 14 -2 14 -2 14 -3 14 -3 14 -4 
13 -4 14 -4 14 -5 14 -6 14 -5 13 -6 14 -7 13 -7 
13 -7 13 -8 12 -8 12 -9 12 -9 12 -9 11 -9 11 -10 
11 -10 10 -10 10 -10 9 -11 9 -10 9 -11 8 -11 8 -11 
8 -11 7 -11 6 -11 7 -11 5 -11 6 -11 5 -10 5 -11 
4 -10 4 -11 4 -10 3 -10 4 -9 2 -10 3 -9 2 -9 
2 -8 2 -9 2 -8 1 -8 2 -7 1 -8 1 -6 1 -7 
0 -6 1 -6 1 -6 0 -10 1 -5 0 -22 1 -2 0 -5 
3092 1812 89 MP stroke
8 -4 8 -4 8 -4 9 -4 9 -4 9 -4 10 -3 9 -4 
10 -3 11 -3 10 -4 11 -2 11 -3 11 -2 12 -3 11 -2 
12 -1 12 -2 13 -1 12 -1 13 -1 13 0 13 0 13 1 
14 0 13 1 14 2 14 2 14 2 14 3 14 3 14 4 
13 4 14 4 14 5 14 6 14 5 13 6 14 7 13 7 
13 7 13 8 12 8 12 9 12 9 12 9 11 9 11 10 
11 10 10 10 10 10 9 11 9 10 9 11 8 11 8 11 
8 11 7 11 6 11 7 11 5 11 6 11 5 10 5 11 
4 10 4 11 4 10 3 10 4 9 2 10 3 9 2 9 
2 8 2 9 2 8 1 8 2 7 1 8 1 6 1 7 
0 6 1 6 1 6 0 10 1 5 0 22 1 2 0 4 
3092 1812 89 MP stroke
6 5 6 5 6 5 7 5 6 5 7 6 6 5 7 6 
7 6 6 7 7 6 7 7 7 7 7 7 7 7 7 8 
7 8 7 8 7 8 7 9 7 9 7 9 7 10 7 9 
7 10 7 11 7 10 7 11 7 12 7 11 6 12 7 12 
6 13 6 13 6 13 6 13 6 14 5 14 6 14 5 15 
4 14 5 16 4 15 4 16 4 15 3 16 3 17 3 16 
2 17 2 16 2 17 1 17 1 17 0 51 -1 17 -1 17 
-1 17 -2 16 -2 17 -3 16 -2 17 -4 16 -3 15 -4 16 
-4 15 -4 15 -5 14 -4 14 -5 14 -5 14 -5 13 -6 12 
-5 12 -5 12 -6 11 -5 11 -5 10 -6 10 -5 9 -5 9 
-5 8 -4 8 -5 7 -4 7 -4 6 -4 5 -4 6 -3 4 
-3 5 -3 3 -2 4 -2 2 -1 2 -2 2 -1 1 0 1 
3494 606 97 MP stroke
6 -5 6 -5 6 -5 7 -5 6 -5 7 -6 6 -5 7 -6 
7 -6 6 -7 7 -6 7 -7 7 -7 7 -7 7 -7 7 -8 
7 -8 7 -8 7 -8 7 -9 7 -9 7 -9 7 -10 7 -9 
7 -10 7 -11 7 -10 7 -11 7 -12 7 -11 6 -12 7 -12 
6 -13 6 -13 6 -13 6 -13 6 -14 5 -14 6 -14 5 -15 
4 -14 5 -16 4 -15 4 -16 4 -15 3 -16 3 -17 3 -16 
2 -17 2 -16 2 -17 1 -17 1 -17 0 -51 -1 -17 -1 -17 
-1 -17 -2 -16 -2 -17 -3 -16 -2 -17 -4 -16 -3 -15 -4 -16 
-4 -15 -4 -15 -5 -14 -4 -14 -5 -14 -5 -14 -5 -13 -6 -12 
-5 -12 -5 -12 -6 -11 -5 -11 -5 -10 -6 -10 -5 -9 -5 -9 
-5 -8 -4 -8 -5 -7 -4 -7 -4 -6 -4 -5 -4 -6 -3 -4 
-3 -5 -3 -3 -2 -4 -2 -2 -1 -2 -2 -2 -1 -1 0 -1 
3494 3017 97 MP stroke
1 2 1 2 0 2 1 2 1 2 1 2 1 2 1 2 
1 2 2 3 1 2 1 2 2 3 1 2 2 3 1 3 
2 3 2 2 2 3 2 3 2 3 2 3 3 3 2 4 
3 3 2 3 3 4 4 3 3 4 3 3 4 4 4 4 
4 4 5 3 4 4 5 4 5 4 6 4 6 4 6 3 
6 4 7 4 7 3 7 4 8 3 8 3 9 3 9 3 
9 2 10 3 10 1 10 2 11 1 11 1 11 0 11 -1 
12 -1 12 -1 12 -2 12 -3 12 -4 12 -4 12 -4 12 -6 
11 -6 12 -6 10 -7 11 -8 10 -8 9 -8 9 -9 8 -9 
8 -10 7 -9 6 -10 6 -9 5 -10 5 -9 4 -9 4 -9 
3 -9 2 -8 3 -8 2 -8 1 -7 1 -6 1 -7 1 -6 
1 -5 0 -5 1 -4 0 -17 3595 1812 93 MP stroke
1 -2 1 -2 0 -2 1 -2 1 -2 1 -2 1 -2 1 -2 
1 -2 2 -3 1 -2 1 -2 2 -3 1 -2 2 -3 1 -3 
2 -3 2 -2 2 -3 2 -3 2 -3 2 -3 3 -3 2 -4 
3 -3 2 -3 3 -4 4 -3 3 -4 3 -3 4 -4 4 -4 
4 -4 5 -3 4 -4 5 -4 5 -4 6 -4 6 -4 6 -3 
6 -4 7 -4 7 -3 7 -4 8 -3 8 -3 9 -3 9 -3 
9 -2 10 -3 10 -1 10 -2 11 -1 11 -1 11 0 11 1 
12 1 12 1 12 2 12 3 12 4 12 4 12 4 12 6 
11 6 12 6 10 7 11 8 10 8 9 8 9 9 8 9 
8 10 7 9 6 10 6 9 5 10 5 9 4 9 4 9 
3 9 2 8 3 8 2 8 1 7 1 6 1 7 1 6 
1 5 0 5 1 4 0 16 3595 1812 93 MP stroke
2 0 2 1 2 1 2 0 2 1 2 1 2 1 2 0 
2 1 3 1 2 1 2 1 3 1 2 1 3 2 2 1 
3 1 3 2 3 1 3 2 3 1 3 2 3 2 4 2 
3 2 3 2 4 2 4 3 3 2 4 3 4 3 4 3 
4 3 4 3 5 4 4 4 4 4 5 4 4 4 5 5 
5 5 5 6 4 5 5 6 5 7 5 6 4 7 5 8 
5 7 4 9 5 8 4 9 4 10 4 10 4 10 3 11 
3 11 3 12 2 12 2 12 1 13 1 13 0 26 -1 14 
-2 14 -2 14 -3 13 -4 14 -4 14 -5 13 -6 13 -6 12 
-6 13 -7 11 -8 12 -7 10 -8 10 -8 10 -9 9 -8 8 
-8 7 -9 7 -8 7 -7 5 -8 6 -7 4 -7 4 -6 4 
-6 3 -5 3 -5 2 -4 2 -3 2 -3 1 -2 1 -2 1 
-1 0 3981 1232 98 MP stroke
2 0 2 -1 2 -1 2 0 2 -1 2 -1 2 -1 2 0 
2 -1 3 -1 2 -1 2 -1 3 -1 2 -1 3 -2 2 -1 
3 -1 3 -2 3 -1 3 -2 3 -1 3 -2 3 -2 4 -2 
3 -2 3 -2 4 -2 4 -3 3 -2 4 -3 4 -3 4 -3 
4 -3 4 -3 5 -4 4 -4 4 -4 5 -4 4 -4 5 -5 
5 -5 5 -6 4 -5 5 -6 5 -7 5 -6 4 -7 5 -8 
5 -7 4 -9 5 -8 4 -9 4 -10 4 -10 4 -10 3 -11 
3 -11 3 -12 2 -12 2 -12 1 -13 1 -13 0 -26 -1 -14 
-2 -14 -2 -14 -3 -13 -4 -14 -4 -14 -5 -13 -6 -13 -6 -12 
-6 -13 -7 -11 -8 -12 -7 -10 -8 -10 -8 -10 -9 -9 -8 -8 
-8 -7 -9 -7 -8 -7 -7 -5 -8 -6 -7 -4 -7 -4 -6 -4 
-6 -3 -5 -3 -5 -2 -4 -2 -3 -2 -3 -1 -2 -1 -2 -1 
-1 0 3981 2391 98 MP stroke
3014 0 1083 1812 2 MP stroke
74 -2 74 -5 73 -9 73 -13 72 -16 72 -20 70 -23 69 -27 
67 -30 67 -33 64 -37 62 -39 61 -43 58 -45 56 -49 54 -51 
51 -53 48 -56 46 -59 42 -60 40 -63 36 -64 34 -66 30 -68 
26 -69 23 -70 20 -71 16 -72 13 -73 9 -74 6 -74 1 -74 
-1 -73 -6 -74 -9 -74 -13 -73 -16 -72 -20 -71 -23 -70 -26 -69 
-30 -68 -34 -66 -36 -64 -40 -63 -42 -60 -46 -59 -48 -56 -51 -53 
-54 -51 -56 -49 -58 -45 -61 -43 -62 -39 -64 -37 -67 -33 -67 -30 
-69 -27 -70 -23 -72 -20 -72 -16 -73 -13 -73 -9 -74 -5 -74 -2 
-74 2 -74 5 -73 9 -73 13 -72 16 -72 20 -70 23 -69 27 
-67 30 -67 33 -64 37 -62 39 -61 43 -58 45 -56 49 -54 51 
-51 53 -48 56 -46 59 -42 60 -40 63 -36 64 -34 66 -30 68 
-26 69 -23 70 -20 71 -16 72 -13 73 -9 74 -6 74 -1 73 
1 74 6 74 9 74 13 73 16 72 20 71 23 70 26 69 
30 68 34 66 36 64 40 63 42 60 46 59 48 56 51 53 
54 51 56 49 58 45 61 43 62 39 64 37 67 33 67 30 
69 27 70 23 72 20 72 16 73 13 73 9 74 5 74 2 
2590 304 129 MP stroke
gr

0.4 sg
0 sg
%%IncludeResource: font Helvetica
/Helvetica /WindowsLatin1Encoding 120 FMSR

1558 1812 mt  -90 rotate
(0.2) s
90 rotate
2061 1812 mt  -90 rotate
(0.5) s
90 rotate
2563 1812 mt  -90 rotate
(1.0) s
90 rotate
3065 1812 mt  -90 rotate
(2.0) s
90 rotate
3568 1812 mt  -90 rotate
(5.0) s
90 rotate
 927 1216 mt 
(+j0.2) s
 927 2491 mt 
(-j0.2) s
1463  527 mt 
(+j0.5) s
1463 3180 mt 
(-j0.5) s
2458  195 mt 
(+j1.0) s
2458 3512 mt 
(-j1.0) s
3453  527 mt 
(+j2.0) s
3453 3180 mt 
(-j2.0) s
3989 1216 mt 
(+j5.0) s
3989 2491 mt 
(-j5.0) s
 849 1854 mt 
(0.0) s
%%IncludeResource: font Symbol
/Symbol /WindowsLatin1Encoding 120 FMSR

4205 1855 mt 
(\245) s
gs 1060 282 3061 3061 rc
gr

80 W
/c8 { 0.000000 0.000000 1.000000 sr} bdef
c8
3344 1058 PD
gs 1060 282 3061 3061 rc
DA
0 sg
754 -754 2590 1812 2 MP stroke
SO
/c9 { 1.000000 0.000000 0.000000 sr} bdef
c9
0 -21 1 -11 0 -11 1 -10 0 -11 1 -10 1 -11 1 -11 
1 -10 1 -11 1 -10 2 -11 1 -11 2 -10 1 -11 2 -10 
2 -11 2 -10 2 -11 2 -10 3 -10 2 -11 2 -10 3 -10 
3 -11 3 -10 3 -10 3 -11 3 -10 3 -10 3 -10 4 -10 
3 -10 4 -10 4 -10 3 -10 4 -10 4 -10 5 -10 4 -9 
4 -10 5 -10 4 -10 5 -9 4 -10 5 -9 5 -10 5 -9 
5 -9 5 -10 6 -9 5 -9 6 -9 5 -10 6 -9 5 -9 
6 -8 6 -9 6 -9 6 -9 6 -9 7 -8 6 -9 7 -8 
6 -9 7 -8 6 -8 7 -9 7 -8 7 -8 7 -8 7 -8 
7 -8 7 -8 8 -7 7 -8 8 -8 7 -7 8 -7 8 -8 
7 -7 8 -7 8 -7 8 -8 8 -6 8 -7 8 -7 9 -7 
8 -7 9 -6 8 -7 9 -6 8 -6 9 -6 8 -7 9 -6 
9 -6 9 -5 9 -6 9 -6 9 -6 9 -5 9 -5 10 -6 
9 -5 9 -5 10 -5 9 -5 10 -5 9 -5 10 -4 9 -5 
10 -4 10 -5 9 -4 10 -4 10 -4 10 -4 10 -4 10 -4 
10 -4 10 -3 10 -4 10 -3 10 -3 10 -4 11 -3 10 -3 
10 -2 10 -3 11 -3 10 -2 10 -3 11 -2 10 -2 11 -3 
10 -2 11 -2 10 -1 11 -2 10 -2 11 -1 10 -2 11 -1 
11 -1 10 -1 11 -1 10 -1 11 -1 11 -1 10 0 11 -1 
11 0 10 0 11 0 11 0 10 0 11 0 11 0 10 1 
11 0 10 1 11 0 11 1 10 1 11 1 11 1 10 2 
11 1 10 1 11 2 10 2 11 1 10 2 11 2 10 2 
11 3 10 2 10 2 11 3 10 2 10 3 11 3 10 3 
10 3 10 3 11 3 10 4 10 3 10 3 10 4 10 4 
10 4 10 4 10 4 9 4 10 4 10 4 10 5 9 4 
10 5 9 5 10 4 9 5 10 5 9 5 10 6 9 5 
9 5 9 6 9 5 9 6 9 6 9 5 9 6 9 6 
9 6 8 6 9 7 9 6 8 7 9 6 8 7 8 6 
8 7 9 7 8 7 8 7 8 7 8 7 7 7 8 8 
8 7 7 8 8 7 7 8 8 7 7 8 7 8 7 8 
7 8 7 8 7 8 7 8 7 9 7 8 6 8 7 9 
6 8 6 9 6 9 7 8 6 9 6 9 6 9 5 9 
6 9 6 9 5 9 6 9 5 9 5 10 5 9 5 9 
5 10 5 9 5 10 5 9 4 10 5 10 4 9 4 10 
4 10 4 10 4 10 4 10 4 10 4 10 3 10 4 10 
3 10 4 10 3 10 3 10 3 11 3 10 2 10 3 10 
3 11 2 10 3 11 2 10 2 10 2 11 2 10 2 11 
2 10 1 11 2 10 1534 1959 300 MP stroke
1 11 1 11 2 10 1 11 1 10 1 11 0 11 1 10 
1 11 0 21 1 11 0 43 -1 10 0 11 -1 10 0 11 
-1 11 -1 10 -1 11 -1 11 -1 10 -1 11 -1 10 -2 11 
-1 10 -2 11 -2 11 -2 10 -2 10 -2 11 -2 10 -2 11 
-3 10 -2 11 -3 10 -2 10 -3 10 -3 11 -3 10 -3 10 
-3 10 -4 10 -3 10 -4 11 -3 10 -4 10 -4 10 -4 9 
-4 10 -4 10 -4 10 -4 10 -5 9 -4 10 -5 10 -5 9 
-4 10 -5 9 -5 10 -5 9 -6 9 -5 10 -5 9 -6 9 
-5 9 -6 9 -6 9 -5 9 -6 9 -6 9 -6 9 -6 8 
-7 9 -6 8 -6 9 -7 8 -7 9 -6 8 -7 8 -7 8 
-7 9 -7 8 -7 8 -7 7 -7 8 -8 8 -7 8 -7 7 
-8 8 -8 7 -7 8 -8 7 -8 7 -8 7 -8 7 -8 7 
-8 7 -8 7 -8 7 -9 6 -8 7 -9 7 -8 6 -9 6 
-8 6 -9 7 -9 6 -9 6 -9 6 -9 5 -9 6 -9 6 
-9 5 -9 6 -9 5 -9 5 -10 5 -9 5 -10 5 -9 5 
-10 5 -9 5 -10 4 -9 5 -10 4 -10 4 -10 5 -10 4 
-9 4 -10 4 -10 3 -10 4 -10 4 -10 3 -11 4 -10 3 
-10 3 -10 3 -10 3 -11 3 -10 3 -10 2 -10 3 -11 3 
-10 2 -11 2 -10 2 -11 2 -10 2 -11 2 -10 2 -11 2 
-10 1 -11 2 -10 1 -11 1 -10 1 -11 1 -11 1 -10 1 
-11 1 -11 0 -10 1 -11 0 -11 0 -10 0 -11 0 -11 0 
-10 0 -11 0 -10 -1 -11 0 -11 -1 -10 0 -11 -1 -11 -1 
-10 -1 -11 -1 -10 -1 -11 -2 -11 -1 -10 -2 -11 -1 -10 -2 
-11 -2 -10 -2 -11 -2 -10 -2 -10 -2 -11 -3 -10 -2 -11 -3 
-10 -3 -10 -2 -10 -3 -11 -3 -10 -3 -10 -4 -10 -3 -10 -3 
-10 -4 -10 -4 -10 -3 -10 -4 -10 -4 -10 -4 -10 -4 -10 -4 
-9 -5 -10 -4 -10 -5 -9 -4 -10 -5 -9 -5 -10 -4 -9 -5 
-10 -6 -9 -5 -9 -5 -10 -5 -9 -6 -9 -5 -9 -6 -9 -6 
-9 -5 -9 -6 -9 -6 -8 -6 -9 -6 -9 -7 -8 -6 -9 -6 
-8 -7 -9 -7 -8 -6 -8 -7 -8 -7 -8 -7 -8 -7 -8 -7 
-8 -7 -8 -7 -8 -7 -8 -8 -7 -7 -8 -8 -7 -7 -8 -8 
-7 -8 -7 -8 -7 -8 -7 -8 -7 -8 -7 -8 -7 -8 -7 -8 
-6 -9 -7 -8 -7 -8 -6 -9 -6 -9 -7 -8 -6 -9 -6 -9 
-6 -8 -6 -9 -5 -9 -6 -9 -6 -9 -5 -9 -6 -10 -5 -9 
-5 -9 -5 -9 -5 -10 -5 -9 -5 -10 -5 -9 -5 -10 -4 -9 
-5 -10 -4 -10 -5 -10 -4 -9 -4 -10 -4 -10 -4 -10 -4 -10 
-3 -10 -4 -10 -3 -10 -4 -10 -3 -10 -3 -11 -3 -10 -3 -10 
-3 -10 -3 -10 -3 -11 3623 1548 300 MP stroke
-2 -10 -3 -11 -2 -10 -2 -10 -3 -11 -2 -10 -2 -11 -2 -10 
-1 -11 -2 -10 -1 -11 -2 -10 -1 -11 -1 -10 -2 -11 -1 -11 
0 -10 -1 -11 -1 -11 -1 -10 0 -22 -1 -10 0 -22 3656 1812 24 MP stroke
gr

c9
80 W
/c10 { 1.000000 0.000000 1.000000 sr} bdef
c10
1537 1978 PD
gs 1060 282 3061 3061 rc
DA
0 sg
-1053 166 2590 1812 2 MP stroke
SO
gr

0 sg

end %%Color Dict

eplot
%%EndObject

epage
end

showpage

%%Trailer
%%EOF
