%!PS-Adobe-3.0 EPSF-3.0
%%Creator: MATLAB, The MathWorks, Inc. Version 8.1.0.604 (R2013a). Operating System: Microsoft Windows 8.
%%Title: ..\Images\Notes\smith_chart_midsem.eps
%%CreationDate: 06/09/2015  19:37:02
%%DocumentNeededFonts: Helvetica
%%DocumentProcessColors: Cyan Magenta Yellow Black
%%LanguageLevel: 2
%%Pages: 1
%%BoundingBox:   -12   110   608   731
%%EndComments

%%BeginProlog
% MathWorks dictionary
/MathWorks 160 dict begin
% definition operators
/bdef {bind def} bind def
/ldef {load def} bind def
/xdef {exch def} bdef
/xstore {exch store} bdef
% operator abbreviations
/c  /clip ldef
/cc /concat ldef
/cp /closepath ldef
/gr /grestore ldef
/gs /gsave ldef
/mt /moveto ldef
/np /newpath ldef
/cm /currentmatrix ldef
/sm /setmatrix ldef
/rm /rmoveto ldef
/rl /rlineto ldef
/s {show newpath} bdef
/sc {setcmykcolor} bdef
/sr /setrgbcolor ldef
/sg /setgray ldef
/w /setlinewidth ldef
/j /setlinejoin ldef
/cap /setlinecap ldef
/rc {rectclip} bdef
/rf {rectfill} bdef
% page state control
/pgsv () def
/bpage {/pgsv save def} bdef
/epage {pgsv restore} bdef
/bplot /gsave ldef
/eplot {stroke grestore} bdef
% orientation switch
/portraitMode 0 def /landscapeMode 1 def /rotateMode 2 def
% coordinate system mappings
/dpi2point 0 def
% font control
/FontSize 0 def
/FMS {/FontSize xstore findfont [FontSize 0 0 FontSize neg 0 0]
  makefont setfont} bdef
/ISOLatin1Encoding where {pop /WindowsLatin1Encoding 256 array bdef
ISOLatin1Encoding WindowsLatin1Encoding copy pop
/.notdef/.notdef/quotesinglbase/florin/quotedblbase/ellipsis/dagger
/daggerdbl/circumflex/perthousand/Scaron/guilsinglleft/OE/.notdef/.notdef
/.notdef/.notdef/quoteleft/quoteright/quotedblleft/quotedblright/bullet
/endash/emdash/tilde/trademark/scaron/guilsinglright/oe/.notdef/.notdef
/Ydieresis WindowsLatin1Encoding 128 32 getinterval astore pop}
{/WindowsLatin1Encoding StandardEncoding bdef} ifelse
/reencode {exch dup where {pop load} {pop StandardEncoding} ifelse
  exch dup 3 1 roll findfont dup length dict begin
  { 1 index /FID ne {def}{pop pop} ifelse } forall
  /Encoding exch def currentdict end definefont pop} bdef
/isroman {findfont /CharStrings get /Agrave known} bdef
/FMSR {3 1 roll 1 index dup isroman {reencode} {pop pop} ifelse
  exch FMS} bdef
/csm {1 dpi2point div -1 dpi2point div scale neg translate
 dup landscapeMode eq {pop -90 rotate}
  {rotateMode eq {90 rotate} if} ifelse} bdef
% line types: solid, dotted, dashed, dotdash
/SO { [] 0 setdash } bdef
/DO { [.5 dpi2point mul 4 dpi2point mul] 0 setdash } bdef
/DA { [6 dpi2point mul] 0 setdash } bdef
/DD { [.5 dpi2point mul 4 dpi2point mul 6 dpi2point mul 4
  dpi2point mul] 0 setdash } bdef
% macros for lines and objects
/L {lineto stroke} bdef
/MP {3 1 roll moveto 1 sub {rlineto} repeat} bdef
/AP {{rlineto} repeat} bdef
/PDlw -1 def
/W {/PDlw currentlinewidth def setlinewidth} def
/PP {closepath eofill} bdef
/DP {closepath stroke} bdef
/MR {4 -2 roll moveto dup  0 exch rlineto exch 0 rlineto
  neg 0 exch rlineto closepath} bdef
/FR {MR stroke} bdef
/PR {MR fill} bdef
/L1i {{currentfile picstr readhexstring pop} image} bdef
/tMatrix matrix def
/MakeOval {newpath tMatrix currentmatrix pop translate scale
0 0 1 0 360 arc tMatrix setmatrix} bdef
/FO {MakeOval stroke} bdef
/PO {MakeOval fill} bdef
/PD {currentlinewidth 2 div 0 360 arc fill
   PDlw -1 eq not {PDlw w /PDlw -1 def} if} def
/FA {newpath tMatrix currentmatrix pop translate scale
  0 0 1 5 -2 roll arc tMatrix setmatrix stroke} bdef
/PA {newpath tMatrix currentmatrix pop	translate 0 0 moveto scale
  0 0 1 5 -2 roll arc closepath tMatrix setmatrix fill} bdef
/FAn {newpath tMatrix currentmatrix pop translate scale
  0 0 1 5 -2 roll arcn tMatrix setmatrix stroke} bdef
/PAn {newpath tMatrix currentmatrix pop translate 0 0 moveto scale
  0 0 1 5 -2 roll arcn closepath tMatrix setmatrix fill} bdef
/vradius 0 def /hradius 0 def /lry 0 def
/lrx 0 def /uly 0 def /ulx 0 def /rad 0 def
/MRR {/vradius xdef /hradius xdef /lry xdef /lrx xdef /uly xdef
  /ulx xdef newpath tMatrix currentmatrix pop ulx hradius add uly
  vradius add translate hradius vradius scale 0 0 1 180 270 arc 
  tMatrix setmatrix lrx hradius sub uly vradius add translate
  hradius vradius scale 0 0 1 270 360 arc tMatrix setmatrix
  lrx hradius sub lry vradius sub translate hradius vradius scale
  0 0 1 0 90 arc tMatrix setmatrix ulx hradius add lry vradius sub
  translate hradius vradius scale 0 0 1 90 180 arc tMatrix setmatrix
  closepath} bdef
/FRR {MRR stroke } bdef
/PRR {MRR fill } bdef
/MlrRR {/lry xdef /lrx xdef /uly xdef /ulx xdef /rad lry uly sub 2 div def
  newpath tMatrix currentmatrix pop ulx rad add uly rad add translate
  rad rad scale 0 0 1 90 270 arc tMatrix setmatrix lrx rad sub lry rad
  sub translate rad rad scale 0 0 1 270 90 arc tMatrix setmatrix
  closepath} bdef
/FlrRR {MlrRR stroke } bdef
/PlrRR {MlrRR fill } bdef
/MtbRR {/lry xdef /lrx xdef /uly xdef /ulx xdef /rad lrx ulx sub 2 div def
  newpath tMatrix currentmatrix pop ulx rad add uly rad add translate
  rad rad scale 0 0 1 180 360 arc tMatrix setmatrix lrx rad sub lry rad
  sub translate rad rad scale 0 0 1 0 180 arc tMatrix setmatrix
  closepath} bdef
/FtbRR {MtbRR stroke } bdef
/PtbRR {MtbRR fill } bdef
/stri 6 array def /dtri 6 array def
/smat 6 array def /dmat 6 array def
/tmat1 6 array def /tmat2 6 array def /dif 3 array def
/asub {/ind2 exch def /ind1 exch def dup dup
  ind1 get exch ind2 get sub exch } bdef
/tri_to_matrix {
  2 0 asub 3 1 asub 4 0 asub 5 1 asub
  dup 0 get exch 1 get 7 -1 roll astore } bdef
/compute_transform {
  dmat dtri tri_to_matrix tmat1 invertmatrix 
  smat stri tri_to_matrix tmat2 concatmatrix } bdef
/ds {stri astore pop} bdef
/dt {dtri astore pop} bdef
/db {2 copy /cols xdef /rows xdef mul dup 3 mul string
  currentfile 
  3 index 0 eq {/ASCIIHexDecode filter}
  {/ASCII85Decode filter 3 index 2 eq {/RunLengthDecode filter} if }
  ifelse exch readstring pop
  dup 0 3 index getinterval /rbmap xdef
  dup 2 index dup getinterval /gbmap xdef
  1 index dup 2 mul exch getinterval /bbmap xdef pop pop}bdef
/it {gs np dtri aload pop moveto lineto lineto cp c
  cols rows 8 compute_transform 
  rbmap gbmap bbmap true 3 colorimage gr}bdef
/il {newpath moveto lineto stroke}bdef
currentdict end def
%%EndProlog

%%BeginSetup
MathWorks begin

0 cap

end
%%EndSetup

%%Page: 1 1
%%BeginPageSetup
%%PageBoundingBox:   -12   110   608   731
MathWorks begin
bpage
%%EndPageSetup

%%BeginObject: obj1
bplot

/dpi2point 12 def
portraitMode -0144 8772 csm

    0     0  7447  7450 rc
89 dict begin %Colortable dictionary
/c0 { 0.000000 0.000000 0.000000 sr} bdef
/c1 { 1.000000 1.000000 1.000000 sr} bdef
/c2 { 0.900000 0.000000 0.000000 sr} bdef
/c3 { 0.000000 0.820000 0.000000 sr} bdef
/c4 { 0.000000 0.000000 0.800000 sr} bdef
/c5 { 0.910000 0.820000 0.320000 sr} bdef
/c6 { 1.000000 0.260000 0.820000 sr} bdef
/c7 { 0.000000 0.820000 0.820000 sr} bdef
c0
1 j
1 sg
   0    0 7448 7451 rf
6 w
gs 968 709 5773 5773 rc
17 -139 10 -139 4 -140 -4 -139 -10 -139 -17 -139 -24 -137 -30 -136 
-38 -135 -43 -132 -51 -131 -56 -127 -63 -125 -69 -121 -74 -118 -81 -114 
-86 -110 -91 -106 -96 -101 -101 -96 -106 -91 -110 -86 -114 -81 -118 -74 
-121 -69 -125 -63 -127 -56 -131 -51 -132 -43 -135 -38 -136 -30 -137 -24 
-139 -17 -139 -10 -140 -4 -139 4 -139 10 -139 17 -137 24 -136 30 
-135 38 -132 43 -131 51 -127 56 -125 63 -121 69 -118 74 -114 81 
-110 86 -106 91 -101 96 -96 101 -91 106 -86 110 -81 114 -74 118 
-69 121 -63 125 -56 127 -51 131 -43 132 -38 135 -30 136 -24 137 
-17 139 -10 139 -4 139 4 140 10 139 17 139 24 137 30 136 
38 135 43 132 51 131 56 127 63 125 69 121 74 118 81 114 
86 110 91 106 96 101 101 96 106 91 110 86 114 81 118 74 
121 69 125 63 127 56 131 51 132 43 135 38 136 30 137 24 
139 17 139 10 139 4 3854 751 100 MP
139 -4 139 -10 139 -17 137 -24 136 -30 135 -38 132 -43 131 -51 
127 -56 125 -63 121 -69 118 -74 114 -81 110 -86 106 -91 101 -96 
96 -101 91 -106 86 -110 81 -114 74 -118 69 -121 63 -125 56 -127 
51 -131 43 -132 38 -135 30 -136 24 -137 29 AP
PP
0 sg
1 0 139 -4 139 -10 139 -17 137 -24 136 -30 135 -38 132 -43 
131 -51 127 -56 125 -63 121 -69 118 -74 114 -81 110 -86 106 -91 
101 -96 96 -101 91 -106 86 -110 81 -114 74 -118 69 -121 63 -125 
56 -127 51 -131 43 -132 38 -135 30 -136 24 -137 17 -139 10 -139 
4 -140 -4 -139 -10 -139 -17 -139 -24 -137 -30 -136 -38 -135 -43 -132 
-51 -131 -56 -127 -63 -125 -69 -121 -74 -118 -81 -114 -86 -110 -91 -106 
-96 -101 -101 -96 -106 -91 -110 -86 -114 -81 -118 -74 -121 -69 -125 -63 
-127 -56 -131 -51 -132 -43 -135 -38 -136 -30 -137 -24 -139 -17 -139 -10 
-140 -4 -139 4 -139 10 -139 17 -137 24 -136 30 -135 38 -132 43 
-131 51 -127 56 -125 63 -121 69 -118 74 -114 81 -110 86 -106 91 
-101 96 -96 101 -91 106 -86 110 -81 114 -74 118 -69 121 -63 125 
-56 127 -51 131 -43 132 -38 135 -30 136 -24 137 -17 139 -10 139 
-4 139 4 140 10 139 17 139 24 137 30 136 38 135 43 132 
51 131 56 127 63 125 69 121 74 118 81 114 86 110 91 106 
96 101 101 96 106 91 110 86 114 81 118 74 121 69 125 63 
127 56 131 51 132 43 135 38 136 30 137 24 139 17 139 10 
139 4 3854 751 130 MP stroke
0.4 sg
3 0 2 0 3 0 3 -1 2 0 3 -1 3 -1 2 -1 
3 -1 2 -1 3 -2 2 -1 2 -2 2 -1 2 -2 2 -2 
2 -2 2 -2 2 -2 1 -3 2 -2 1 -2 1 -3 1 -2 
1 -3 1 -2 1 -3 1 -3 0 -5 1 -3 0 -5 -1 -3 
0 -5 -1 -3 -1 -3 -1 -2 -1 -3 -1 -2 -1 -3 -1 -2 
-2 -2 -1 -3 -2 -2 -2 -2 -2 -2 -2 -2 -2 -2 -2 -1 
-2 -2 -2 -1 -3 -2 -2 -1 -3 -1 -2 -1 -3 -1 -3 -1 
-2 0 -3 -1 -3 0 -2 0 -3 0 -3 0 -3 0 -2 0 
-3 1 -3 0 -2 1 -3 1 -2 1 -3 1 -2 1 -3 2 
-2 1 -2 2 -2 1 -3 2 -2 2 -1 2 -2 2 -2 2 
-1 3 -2 2 -1 2 -1 3 -2 2 -1 3 0 2 -1 3 
-1 3 0 2 -1 3 0 11 1 3 0 2 1 3 1 3 
0 2 1 3 2 2 1 3 1 2 2 2 1 3 2 2 
2 2 1 2 2 2 3 2 2 1 2 2 2 1 3 2 
2 1 3 1 2 1 3 1 2 1 3 0 3 1 2 0 
3 0 3 0 6641 3539 123 MP stroke
1 0 1 0 1 0 1 0 1 0 1 0 1 0 1 0 
1 0 1 1 1 0 1 0 1 0 1 1 1 0 1 0 
1 1 1 0 1 0 1 1 2 1 1 0 2 1 2 1 
1 1 2 2 3 1 2 2 2 2 3 3 3 3 3 4 
2 4 3 6 2 6 1 7 1 7 0 8 -2 9 -3 8 
-5 8 -5 7 -7 6 -6 5 -7 3 -5 2 -5 1 -4 1 
-3 0 -2 0 -1 0 6695 3481 52 MP stroke
1 0 1 0 1 0 1 0 1 0 1 0 1 0 1 0 
1 0 1 -1 1 0 1 0 1 0 1 -1 1 0 1 0 
1 -1 1 0 1 0 1 -1 2 -1 1 0 2 -1 2 -1 
1 -1 2 -2 3 -1 2 -2 2 -2 3 -3 3 -3 3 -4 
2 -4 3 -6 2 -6 1 -7 1 -7 0 -8 -2 -9 -3 -8 
-5 -8 -5 -7 -7 -6 -6 -5 -7 -3 -5 -2 -5 -1 -4 -1 
-3 0 -2 0 -1 0 6695 3708 52 MP stroke
46 -9 47 -10 46 -11 47 -12 46 -13 47 -14 46 -15 46 -16 
46 -17 46 -18 46 -19 45 -20 45 -21 45 -22 44 -23 44 -24 
43 -25 42 -25 42 -27 42 -27 41 -29 40 -29 39 -29 39 -31 
38 -31 37 -32 36 -33 36 -33 34 -33 34 -34 33 -35 31 -35 
31 -35 30 -36 29 -36 29 -36 27 -36 26 -37 25 -36 24 -37 
24 -37 22 -36 22 -37 20 -36 20 -37 18 -36 18 -36 17 -35 
16 -36 15 -35 15 -34 14 -35 12 -34 13 -33 11 -33 11 -32 
10 -32 9 -32 9 -31 8 -30 8 -29 7 -29 6 -29 6 -27 
6 -27 5 -26 4 -26 5 -25 3 -24 4 -23 3 -23 3 -22 
2 -21 3 -20 2 -20 1 -19 2 -18 1 -17 2 -17 1 -15 
0 -15 1 -14 1 -13 0 -13 1 -12 0 -20 1 -10 0 -49 
1958 3595 89 MP stroke
46 9 47 10 46 11 47 12 46 13 47 14 46 15 46 16 
46 17 46 18 46 19 45 20 45 21 45 22 44 23 44 24 
43 25 42 25 42 27 42 27 41 29 40 29 39 29 39 31 
38 31 37 32 36 33 36 33 34 33 34 34 33 35 31 35 
31 35 30 36 29 36 29 36 27 36 26 37 25 36 24 37 
24 37 22 36 22 37 20 36 20 37 18 36 18 36 17 35 
16 36 15 35 15 34 14 35 12 34 13 33 11 33 11 32 
10 32 9 32 9 31 8 30 8 29 7 29 6 29 6 27 
6 27 5 26 4 26 5 25 3 24 4 23 3 23 3 22 
2 21 3 20 2 20 1 19 2 18 1 17 2 17 1 15 
0 15 1 14 1 13 0 13 1 12 0 20 1 10 0 48 
1958 3595 89 MP stroke
28 6 29 6 28 5 29 6 29 7 29 6 30 6 30 7 
30 6 30 7 31 7 31 7 31 7 31 7 31 8 32 7 
32 8 32 8 33 8 32 8 33 8 33 8 33 9 34 8 
33 9 34 9 34 9 34 9 34 9 34 10 35 9 34 10 
35 9 35 10 35 10 34 10 35 10 35 11 35 10 35 11 
35 10 35 11 35 11 34 10 35 11 35 11 34 11 35 11 
34 12 34 11 34 11 33 11 34 12 33 11 33 11 33 11 
32 12 32 11 31 11 32 11 30 11 31 11 30 11 29 11 
29 10 29 11 27 10 28 11 26 10 27 10 25 9 25 10 
24 9 23 9 23 9 22 9 21 8 21 8 19 8 19 8 
18 7 17 7 16 6 16 6 14 6 13 6 13 5 11 5 
11 4 10 4 8 3 8 4 7 2 5 3 5 2 3 1 
3 1 2 1 1229 2501 99 MP stroke
28 -6 29 -6 28 -5 29 -6 29 -7 29 -6 30 -6 30 -7 
30 -6 30 -7 31 -7 31 -7 31 -7 31 -7 31 -8 32 -7 
32 -8 32 -8 33 -8 32 -8 33 -8 33 -8 33 -9 34 -8 
33 -9 34 -9 34 -9 34 -9 34 -9 34 -10 35 -9 34 -10 
35 -9 35 -10 35 -10 34 -10 35 -10 35 -11 35 -10 35 -11 
35 -10 35 -11 35 -11 34 -10 35 -11 35 -11 34 -11 35 -11 
34 -12 34 -11 34 -11 33 -11 34 -12 33 -11 33 -11 33 -11 
32 -12 32 -11 31 -11 32 -11 30 -11 31 -11 30 -11 29 -11 
29 -10 29 -11 27 -10 28 -11 26 -10 27 -10 25 -9 25 -10 
24 -9 23 -9 23 -9 22 -9 21 -8 21 -8 19 -8 19 -8 
18 -7 17 -7 16 -6 16 -6 14 -6 13 -6 13 -5 11 -5 
11 -4 10 -4 8 -3 8 -4 7 -2 5 -3 5 -2 3 -1 
3 -1 2 -1 1229 4688 99 MP stroke
36 10 36 10 37 9 38 8 39 7 39 7 40 6 41 6 
41 4 42 4 43 2 43 2 44 1 44 0 45 -2 46 -2 
45 -3 46 -5 47 -6 46 -7 47 -8 47 -10 47 -11 47 -12 
47 -13 47 -15 47 -16 47 -17 46 -19 46 -20 45 -21 45 -22 
45 -24 44 -25 43 -26 43 -27 41 -28 41 -29 40 -30 39 -31 
38 -32 37 -33 36 -33 34 -34 34 -35 32 -35 31 -36 30 -36 
29 -37 28 -37 26 -37 25 -37 24 -37 23 -37 21 -37 21 -37 
19 -36 18 -37 17 -36 16 -35 14 -35 14 -35 13 -34 12 -34 
11 -33 10 -32 9 -31 9 -31 7 -30 7 -29 7 -29 5 -27 
5 -27 5 -25 4 -25 4 -24 3 -23 3 -22 2 -21 2 -20 
2 -19 1 -18 2 -17 1 -16 1 -14 0 -14 1 -13 0 -12 
1 -11 0 -52 2906 3595 91 MP stroke
36 -10 36 -10 37 -9 38 -8 39 -7 39 -7 40 -6 41 -6 
41 -4 42 -4 43 -2 43 -2 44 -1 44 0 45 2 46 2 
45 3 46 5 47 6 46 7 47 8 47 10 47 11 47 12 
47 13 47 15 47 16 47 17 46 19 46 20 45 21 45 22 
45 24 44 25 43 26 43 27 41 28 41 29 40 30 39 31 
38 32 37 33 36 33 34 34 34 35 32 35 31 36 30 36 
29 37 28 37 26 37 25 37 24 37 23 37 21 37 21 37 
19 36 18 37 17 36 16 35 14 35 14 35 13 34 12 34 
11 33 10 32 9 31 9 31 7 30 7 29 7 29 5 27 
5 27 5 25 4 25 4 24 3 23 3 22 2 21 2 20 
2 19 1 18 2 17 1 16 1 14 0 14 1 13 0 12 
1 11 0 51 2906 3595 91 MP stroke
24 8 24 8 25 9 24 9 25 9 26 10 26 9 26 10 
26 11 27 10 27 11 28 11 28 12 28 12 29 12 29 12 
29 13 30 14 30 13 31 14 31 15 31 14 32 16 32 15 
32 16 33 17 33 17 33 17 33 18 34 18 34 18 35 20 
35 19 35 20 35 21 35 21 36 21 36 22 36 23 36 23 
37 23 36 24 37 25 37 25 36 25 37 26 37 26 37 27 
37 27 37 28 36 28 37 28 36 29 36 29 36 29 36 30 
36 30 35 30 35 30 34 31 34 31 34 31 33 30 33 31 
32 31 32 31 31 31 30 30 30 31 29 30 28 30 28 29 
27 29 26 28 25 28 24 28 24 27 22 26 22 25 21 24 
19 24 19 23 18 21 17 21 16 20 14 18 14 18 13 16 
11 15 11 13 9 12 8 11 7 10 7 8 5 6 3 6 
3 3 2 2 1 1 2147 1320 100 MP stroke
24 -8 24 -8 25 -9 24 -9 25 -9 26 -10 26 -9 26 -10 
26 -11 27 -10 27 -11 28 -11 28 -12 28 -12 29 -12 29 -12 
29 -13 30 -14 30 -13 31 -14 31 -15 31 -14 32 -16 32 -15 
32 -16 33 -17 33 -17 33 -17 33 -18 34 -18 34 -18 35 -20 
35 -19 35 -20 35 -21 35 -21 36 -21 36 -22 36 -23 36 -23 
37 -23 36 -24 37 -25 37 -25 36 -25 37 -26 37 -26 37 -27 
37 -27 37 -28 36 -28 37 -28 36 -29 36 -29 36 -29 36 -30 
36 -30 35 -30 35 -30 34 -31 34 -31 34 -31 33 -30 33 -31 
32 -31 32 -31 31 -31 30 -30 30 -31 29 -30 28 -30 28 -29 
27 -29 26 -28 25 -28 24 -28 24 -27 22 -26 22 -25 21 -24 
19 -24 19 -23 18 -21 17 -21 16 -20 14 -18 14 -18 13 -16 
11 -15 11 -13 9 -12 8 -11 7 -10 7 -8 5 -6 3 -6 
3 -3 2 -2 1 -1 2147 5869 100 MP stroke
14 14 15 15 15 15 16 15 16 15 17 15 17 15 19 15 
19 15 20 16 20 15 22 16 22 15 23 15 24 16 25 15 
26 15 26 14 28 15 29 14 29 14 31 14 32 13 33 12 
34 12 35 12 36 10 37 10 38 10 39 8 40 7 41 6 
43 5 43 4 44 3 44 1 46 0 46 -2 47 -3 47 -5 
48 -6 48 -9 48 -10 48 -11 49 -14 48 -15 48 -18 47 -19 
48 -20 46 -23 46 -24 44 -26 44 -28 43 -29 41 -31 40 -31 
39 -34 37 -34 36 -35 34 -36 32 -36 30 -38 29 -37 28 -38 
25 -38 24 -38 22 -38 20 -38 19 -37 17 -37 16 -37 14 -35 
13 -35 12 -34 10 -34 10 -32 8 -31 7 -30 6 -28 6 -28 
4 -26 4 -25 3 -24 3 -22 2 -21 2 -19 2 -18 1 -17 
1 -15 0 -14 1 -12 0 -47 3854 3595 93 MP stroke
14 -14 15 -15 15 -15 16 -15 16 -15 17 -15 17 -15 19 -15 
19 -15 20 -16 20 -15 22 -16 22 -15 23 -15 24 -16 25 -15 
26 -15 26 -14 28 -15 29 -14 29 -14 31 -14 32 -13 33 -12 
34 -12 35 -12 36 -10 37 -10 38 -10 39 -8 40 -7 41 -6 
43 -5 43 -4 44 -3 44 -1 46 0 46 2 47 3 47 5 
48 6 48 9 48 10 48 11 49 14 48 15 48 18 47 19 
48 20 46 23 46 24 44 26 44 28 43 29 41 31 40 31 
39 34 37 34 36 35 34 36 32 36 30 38 29 37 28 38 
25 38 24 38 22 38 20 38 19 37 17 37 16 37 14 35 
13 35 12 34 10 34 10 32 8 31 7 30 6 28 6 28 
4 26 4 25 3 24 3 22 2 21 2 19 2 18 1 17 
1 15 0 14 1 12 0 46 3854 3595 93 MP stroke
15 5 15 6 16 5 16 6 16 6 16 6 17 7 17 6 
18 8 18 7 18 7 18 8 19 9 20 8 20 9 20 9 
21 10 21 10 21 11 22 11 22 11 23 12 23 13 24 13 
24 13 24 14 25 15 26 15 25 16 27 16 26 17 27 18 
28 19 28 20 28 20 29 21 29 22 30 22 29 24 30 25 
31 25 31 27 31 27 31 29 31 30 32 30 31 32 32 33 
32 34 32 35 31 37 32 37 31 39 31 39 31 41 31 42 
30 43 30 44 29 45 28 46 28 48 27 47 27 49 25 50 
25 50 24 50 23 52 21 51 21 52 19 52 19 52 17 52 
16 51 15 51 14 51 12 50 12 49 10 49 9 47 8 46 
8 44 6 43 5 42 5 39 4 38 3 35 2 34 2 31 
2 28 1 27 1 24 1 21 0 70 3854 751 94 MP stroke
15 -5 15 -6 16 -5 16 -6 16 -6 16 -6 17 -7 17 -6 
18 -8 18 -7 18 -7 18 -8 19 -9 20 -8 20 -9 20 -9 
21 -10 21 -10 21 -11 22 -11 22 -11 23 -12 23 -13 24 -13 
24 -13 24 -14 25 -15 26 -15 25 -16 27 -16 26 -17 27 -18 
28 -19 28 -20 28 -20 29 -21 29 -22 30 -22 29 -24 30 -25 
31 -25 31 -27 31 -27 31 -29 31 -30 32 -30 31 -32 32 -33 
32 -34 32 -35 31 -37 32 -37 31 -39 31 -39 31 -41 31 -42 
30 -43 30 -44 29 -45 28 -46 28 -48 27 -47 27 -49 25 -50 
25 -50 24 -50 23 -52 21 -51 21 -52 19 -52 19 -52 17 -52 
16 -51 15 -51 14 -51 12 -50 12 -49 10 -49 9 -47 8 -46 
8 -44 6 -43 5 -42 5 -39 4 -38 3 -35 2 -34 2 -31 
2 -28 1 -27 1 -24 1 -21 0 -70 3854 6438 94 MP stroke
15 8 16 7 16 8 16 8 17 7 17 7 18 7 19 6 
18 7 20 6 19 5 21 6 20 5 22 5 21 4 22 4 
23 3 23 3 23 2 24 2 24 1 24 0 25 0 25 -1 
25 -1 26 -2 26 -3 26 -4 26 -4 26 -5 26 -6 27 -7 
26 -8 26 -8 26 -9 26 -11 26 -10 26 -12 25 -12 25 -14 
24 -13 24 -15 24 -15 23 -16 23 -17 22 -17 21 -18 21 -18 
20 -19 19 -19 18 -20 18 -19 17 -21 17 -20 15 -20 15 -21 
14 -21 14 -21 12 -20 12 -21 11 -21 10 -20 10 -20 9 -20 
8 -20 8 -19 7 -19 6 -19 6 -18 6 -18 5 -17 4 -17 
4 -16 4 -16 3 -16 3 -14 2 -15 2 -13 2 -13 2 -13 
1 -11 1 -12 1 -10 1 -10 1 -9 0 -9 1 -8 0 -26 
1 -5 0 -16 4801 3595 91 MP stroke
15 -8 16 -7 16 -8 16 -8 17 -7 17 -7 18 -7 19 -6 
18 -7 20 -6 19 -5 21 -6 20 -5 22 -5 21 -4 22 -4 
23 -3 23 -3 23 -2 24 -2 24 -1 24 0 25 0 25 1 
25 1 26 2 26 3 26 4 26 4 26 5 26 6 27 7 
26 8 26 8 26 9 26 11 26 10 26 12 25 12 25 14 
24 13 24 15 24 15 23 16 23 17 22 17 21 18 21 18 
20 19 19 19 18 20 18 19 17 21 17 20 15 20 15 21 
14 21 14 21 12 20 12 21 11 21 10 20 10 20 9 20 
8 20 8 19 7 19 6 19 6 18 6 18 5 17 4 17 
4 16 4 16 3 16 3 14 2 15 2 13 2 13 2 13 
1 11 1 12 1 10 1 10 1 9 0 9 1 8 0 26 
1 5 0 15 4801 3595 91 MP stroke
12 9 11 9 12 9 12 10 12 10 13 10 12 11 12 11 
13 11 13 12 13 12 13 13 13 13 13 14 13 14 13 14 
13 15 14 15 13 16 14 16 13 17 13 18 14 17 13 19 
13 19 13 19 13 21 13 20 13 21 13 22 12 23 12 23 
12 23 12 24 11 25 11 25 11 26 10 27 10 27 10 27 
9 28 8 29 8 29 8 29 7 30 6 30 6 31 5 31 
4 31 4 31 3 32 2 32 2 32 1 32 0 32 -1 32 
-1 32 -2 32 -3 32 -3 31 -4 32 -5 31 -5 30 -6 30 
-7 30 -7 29 -8 29 -8 28 -8 27 -9 27 -9 26 -10 25 
-9 25 -10 23 -10 23 -10 22 -10 21 -10 20 -10 19 -10 19 
-10 17 -10 17 -9 15 -9 15 -8 14 -8 12 -8 12 -7 11 
-7 10 -6 8 -6 8 -5 7 -4 6 -4 6 -3 4 -2 3 
-2 2 -1 2 -1 0 5560 1320 100 MP stroke
12 -9 11 -9 12 -9 12 -10 12 -10 13 -10 12 -11 12 -11 
13 -11 13 -12 13 -12 13 -13 13 -13 13 -14 13 -14 13 -14 
13 -15 14 -15 13 -16 14 -16 13 -17 13 -18 14 -17 13 -19 
13 -19 13 -19 13 -21 13 -20 13 -21 13 -22 12 -23 12 -23 
12 -23 12 -24 11 -25 11 -25 11 -26 10 -27 10 -27 10 -27 
9 -28 8 -29 8 -29 8 -29 7 -30 6 -30 6 -31 5 -31 
4 -31 4 -31 3 -32 2 -32 2 -32 1 -32 0 -32 -1 -32 
-1 -32 -2 -32 -3 -32 -3 -31 -4 -32 -5 -31 -5 -30 -6 -30 
-7 -30 -7 -29 -8 -29 -8 -28 -8 -27 -9 -27 -9 -26 -10 -25 
-9 -25 -10 -23 -10 -23 -10 -22 -10 -21 -10 -20 -10 -19 -10 -19 
-10 -17 -10 -17 -9 -15 -9 -15 -8 -14 -8 -12 -8 -12 -7 -11 
-7 -10 -6 -8 -6 -8 -5 -7 -4 -6 -4 -6 -3 -4 -2 -3 
-2 -2 -1 -2 -1 0 5560 5869 100 MP stroke
1 3 2 4 1 3 2 4 2 4 1 4 2 4 2 4 
3 4 2 5 2 4 3 5 2 4 3 5 3 5 3 5 
3 5 4 5 3 6 4 5 4 6 5 6 4 6 5 6 
5 6 5 7 6 6 6 7 6 6 7 7 7 7 7 7 
8 7 8 7 9 8 9 7 10 7 10 7 11 8 11 7 
12 7 13 7 13 6 14 7 15 6 16 6 16 6 16 5 
18 5 18 4 19 3 20 3 20 2 21 1 21 0 22 0 
22 -2 22 -3 23 -4 23 -5 23 -7 22 -8 23 -8 22 -11 
21 -11 21 -12 21 -14 19 -14 19 -15 18 -16 16 -17 16 -17 
14 -17 13 -18 13 -18 11 -18 9 -18 9 -18 8 -17 7 -17 
6 -16 5 -16 4 -15 4 -14 3 -14 2 -12 2 -12 1 -11 
1 -10 1 -9 1 -9 0 -7 1 -6 0 -18 5749 3595 95 MP stroke
1 -3 2 -4 1 -3 2 -4 2 -4 1 -4 2 -4 2 -4 
3 -4 2 -5 2 -4 3 -5 2 -4 3 -5 3 -5 3 -5 
3 -5 4 -5 3 -6 4 -5 4 -6 5 -6 4 -6 5 -6 
5 -6 5 -7 6 -6 6 -7 6 -6 7 -7 7 -7 7 -7 
8 -7 8 -7 9 -8 9 -7 10 -7 10 -7 11 -8 11 -7 
12 -7 13 -7 13 -6 14 -7 15 -6 16 -6 16 -6 16 -5 
18 -5 18 -4 19 -3 20 -3 20 -2 21 -1 21 0 22 0 
22 2 22 3 23 4 23 5 23 7 22 8 23 8 22 11 
21 11 21 12 21 14 19 14 19 15 18 16 16 17 16 17 
14 17 13 18 13 18 11 18 9 18 9 18 8 17 7 17 
6 16 5 16 4 15 4 14 3 14 2 12 2 12 1 11 
1 10 1 9 1 9 0 7 1 6 0 17 5749 3595 95 MP stroke
3 1 4 2 3 1 4 1 4 2 4 1 3 1 4 2 
5 2 4 1 4 2 5 2 4 2 5 2 5 3 5 2 
5 2 6 3 5 3 6 3 5 3 6 3 6 4 6 3 
7 4 6 4 7 4 7 5 7 5 7 5 8 5 7 6 
8 6 8 6 8 7 8 7 8 8 9 8 8 8 9 9 
9 10 9 10 9 11 9 11 9 12 9 12 9 14 9 14 
9 14 8 16 9 16 8 17 8 18 7 19 7 19 6 20 
6 22 5 22 4 22 4 23 2 24 1 25 1 25 -1 25 
-2 26 -3 26 -4 26 -6 26 -7 26 -8 25 -9 25 -10 25 
-12 24 -12 23 -13 22 -14 21 -15 20 -15 19 -15 18 -16 17 
-16 15 -15 14 -16 13 -15 12 -15 11 -14 10 -13 9 -13 7 
-12 7 -11 6 -10 5 -8 5 -8 3 -7 3 -5 3 -5 2 
-3 1 -2 1 6478 2501 99 MP stroke
3 -1 4 -2 3 -1 4 -1 4 -2 4 -1 3 -1 4 -2 
5 -2 4 -1 4 -2 5 -2 4 -2 5 -2 5 -3 5 -2 
5 -2 6 -3 5 -3 6 -3 5 -3 6 -3 6 -4 6 -3 
7 -4 6 -4 7 -4 7 -5 7 -5 7 -5 8 -5 7 -6 
8 -6 8 -6 8 -7 8 -7 8 -8 9 -8 8 -8 9 -9 
9 -10 9 -10 9 -11 9 -11 9 -12 9 -12 9 -14 9 -14 
9 -14 8 -16 9 -16 8 -17 8 -18 7 -19 7 -19 6 -20 
6 -22 5 -22 4 -22 4 -23 2 -24 1 -25 1 -25 -1 -25 
-2 -26 -3 -26 -4 -26 -6 -26 -7 -26 -8 -25 -9 -25 -10 -25 
-12 -24 -12 -23 -13 -22 -14 -21 -15 -20 -15 -19 -15 -18 -16 -17 
-16 -15 -15 -14 -16 -13 -15 -12 -15 -11 -14 -10 -13 -9 -13 -7 
-12 -7 -11 -6 -10 -5 -8 -5 -8 -3 -7 -3 -5 -3 -5 -2 
-3 -1 -2 -1 6478 4688 99 MP stroke
5687 0 1010 3595 2 MP stroke
139 -4 139 -10 139 -17 137 -24 136 -30 135 -38 132 -43 131 -51 
127 -56 125 -63 121 -69 118 -74 114 -81 110 -86 106 -91 101 -96 
96 -101 91 -106 86 -110 81 -114 74 -118 69 -121 63 -125 56 -127 
51 -131 43 -132 38 -135 30 -136 24 -137 17 -139 10 -139 4 -140 
-4 -139 -10 -139 -17 -139 -24 -137 -30 -136 -38 -135 -43 -132 -51 -131 
-56 -127 -63 -125 -69 -121 -74 -118 -81 -114 -86 -110 -91 -106 -96 -101 
-101 -96 -106 -91 -110 -86 -114 -81 -118 -74 -121 -69 -125 -63 -127 -56 
-131 -51 -132 -43 -135 -38 -136 -30 -137 -24 -139 -17 -139 -10 -140 -4 
-139 4 -139 10 -139 17 -137 24 -136 30 -135 38 -132 43 -131 51 
-127 56 -125 63 -121 69 -118 74 -114 81 -110 86 -106 91 -101 96 
-96 101 -91 106 -86 110 -81 114 -74 118 -69 121 -63 125 -56 127 
-51 131 -43 132 -38 135 -30 136 -24 137 -17 139 -10 139 -4 139 
4 140 10 139 17 139 24 137 30 136 38 135 43 132 51 131 
56 127 63 125 69 121 74 118 81 114 86 110 91 106 96 101 
101 96 106 91 110 86 114 81 118 74 121 69 125 63 127 56 
131 51 132 43 135 38 136 30 137 24 139 17 139 10 139 4 
3854 751 129 MP stroke
gr

0.4 sg
0 sg
%%IncludeResource: font Helvetica
/Helvetica /WindowsLatin1Encoding 120 FMSR

1931 3595 mt  -90 rotate
(0.2) s
90 rotate
2879 3595 mt  -90 rotate
(0.5) s
90 rotate
3827 3595 mt  -90 rotate
(1.0) s
90 rotate
4774 3595 mt  -90 rotate
(2.0) s
90 rotate
5722 3595 mt  -90 rotate
(5.0) s
90 rotate
 834 2434 mt 
(+j0.2) s
 834 4839 mt 
(-j0.2) s
1845 1134 mt 
(+j0.5) s
1845 6139 mt 
(-j0.5) s
3722  509 mt 
(+j1.0) s
3722 6764 mt 
(-j1.0) s
5598 1134 mt 
(+j2.0) s
5598 6139 mt 
(-j2.0) s
6609 2434 mt 
(+j5.0) s
6609 4839 mt 
(-j5.0) s
 643 3637 mt 
(0.0) s
%%IncludeResource: font Symbol
/Symbol /WindowsLatin1Encoding 120 FMSR

6938 3638 mt 
(\245) s
gs 968 709 5773 5773 rc
gr

80 W
/c8 { 0.000000 0.000000 1.000000 sr} bdef
c8
5297 3420 PD
gs 968 709 5773 5773 rc
gr

80 W
0 sg
5308 3595 PD
gs 968 709 5773 5773 rc
gr

80 W
/c9 { 1.000000 0.000000 1.000000 sr} bdef
c9
2410 3769 PD
gs 968 709 5773 5773 rc
gr

80 W
/c10 { 0.000000 1.000000 0.000000 sr} bdef
c10
4606 2340 PD
gs 968 709 5773 5773 rc
gr

80 W
/c11 { 1.000000 0.000000 0.000000 sr} bdef
c11
4366 6391 PD
gs 968 709 5773 5773 rc
1 -15 0 -29 1 -14 0 -15 1 -14 1 -15 1 -14 2 -15 
1 -14 2 -15 1 -14 2 -15 2 -14 2 -14 3 -15 2 -14 
3 -14 2 -15 3 -14 3 -14 3 -14 4 -15 3 -14 4 -14 
3 -14 4 -14 4 -14 4 -14 5 -14 4 -13 5 -14 4 -14 
5 -14 5 -13 5 -14 5 -14 6 -13 5 -14 6 -13 6 -13 
6 -14 6 -13 6 -13 6 -13 7 -13 6 -13 7 -13 7 -13 
7 -13 7 -12 7 -13 7 -13 8 -12 7 -12 8 -13 8 -12 
8 -12 8 -12 8 -12 8 -12 9 -12 8 -12 9 -12 9 -11 
9 -12 9 -11 9 -11 9 -12 9 -11 10 -11 9 -11 10 -11 
10 -10 10 -11 10 -11 10 -10 10 -10 10 -11 11 -10 10 -10 
11 -10 11 -10 10 -9 11 -10 11 -10 11 -9 12 -9 11 -9 
11 -9 12 -9 11 -9 12 -9 12 -9 11 -8 12 -8 12 -9 
12 -8 13 -8 12 -8 12 -7 12 -8 13 -7 12 -8 13 -7 
13 -7 12 -7 13 -7 13 -7 13 -7 13 -6 13 -6 13 -7 
13 -6 14 -6 13 -5 13 -6 14 -6 13 -5 14 -5 14 -6 
13 -5 14 -5 14 -4 13 -5 14 -4 14 -5 14 -4 14 -4 
14 -4 14 -4 14 -3 14 -4 14 -3 15 -3 14 -3 14 -3 
14 -3 15 -3 14 -2 14 -3 15 -2 14 -2 14 -2 15 -2 
14 -1 15 -2 14 -1 15 -1 14 -1 15 -1 14 -1 15 -1 
14 0 15 0 14 -1 15 0 15 0 14 1 15 0 14 1 
15 0 14 1 15 1 14 1 15 2 14 1 15 2 14 1 
14 2 15 2 14 2 15 3 14 2 14 3 15 2 14 3 
14 3 14 3 14 3 15 4 14 3 14 4 14 4 14 4 
14 4 14 4 13 5 14 4 14 5 14 5 13 5 14 5 
14 5 13 5 14 6 13 6 13 5 14 6 13 6 13 6 
13 7 13 6 13 7 13 6 13 7 13 7 12 7 13 7 
13 8 12 7 13 8 12 7 12 8 12 8 12 8 12 8 
12 9 12 8 12 9 12 8 11 9 12 9 11 9 12 9 
11 9 11 10 11 9 11 10 11 9 11 10 10 10 11 10 
10 10 11 10 10 11 10 10 10 10 10 11 10 11 10 11 
9 10 10 11 9 12 9 11 10 11 9 11 9 12 8 11 
9 12 9 12 8 11 9 12 8 12 8 12 8 13 8 12 
8 12 7 12 8 13 7 12 8 13 7 13 7 12 7 13 
6 13 7 13 6 13 7 13 6 13 6 13 6 14 6 13 
6 13 5 14 6 13 5 14 5 13 5 14 5 14 5 13 
5 14 4 14 4 14 5 14 4 14 4 14 3 14 4 14 
3 14 4 14 3 14 3 15 3 14 3 14 3 14 2 15 
2 14 3 14 2 15 2413 3795 300 MP stroke
2 14 1 15 2 14 2 15 1 14 1 15 1 14 1 15 
1 14 1 15 0 29 1 14 0 29 -1 15 0 14 -1 15 
0 14 -1 15 -1 15 -1 14 -1 14 -2 15 -1 14 -2 15 
-2 14 -2 15 -2 14 -2 14 -3 15 -2 14 -3 14 -3 15 
-3 14 -3 14 -3 14 -4 14 -3 14 -4 15 -4 14 -4 14 
-4 14 -4 13 -4 14 -5 14 -5 14 -4 14 -5 13 -5 14 
-6 13 -5 14 -5 13 -6 14 -6 13 -6 14 -6 13 -6 13 
-6 13 -7 13 -6 13 -7 13 -7 13 -7 13 -7 12 -7 13 
-7 13 -7 12 -8 13 -8 12 -8 12 -7 12 -9 12 -8 12 
-8 12 -8 12 -9 12 -9 12 -8 11 -9 12 -9 11 -9 12 
-9 11 -10 11 -9 11 -10 11 -9 11 -10 11 -10 10 -10 11 
-10 10 -10 11 -11 10 -10 10 -11 10 -10 10 -11 10 -11 10 
-11 9 -11 10 -11 9 -11 10 -11 9 -11 9 -12 9 -11 9 
-12 9 -12 8 -12 9 -11 8 -12 8 -12 8 -13 8 -12 8 
-12 8 -12 8 -13 7 -12 8 -13 7 -13 7 -12 7 -13 7 
-13 7 -13 6 -13 7 -13 6 -13 7 -13 6 -14 6 -13 6 
-13 5 -14 6 -13 5 -14 6 -13 5 -14 5 -14 5 -13 5 
-14 4 -14 5 -14 4 -14 4 -14 4 -14 4 -14 4 -14 4 
-14 3 -14 4 -14 3 -15 3 -14 3 -14 3 -14 2 -15 3 
-14 2 -14 2 -15 3 -14 1 -15 2 -14 2 -14 1 -15 2 
-14 1 -15 1 -14 1 -15 1 -15 0 -14 1 -15 0 -14 1 
-15 0 -14 0 -15 -1 -14 0 -15 -1 -14 0 -15 -1 -14 -1 
-15 -1 -14 -1 -15 -2 -14 -1 -15 -2 -14 -2 -15 -2 -14 -2 
-14 -2 -15 -3 -14 -2 -14 -3 -15 -3 -14 -3 -14 -3 -14 -3 
-14 -3 -14 -4 -14 -4 -14 -3 -14 -4 -14 -4 -14 -5 -14 -4 
-14 -5 -14 -4 -14 -5 -13 -5 -14 -5 -13 -5 -14 -6 -13 -5 
-14 -6 -13 -5 -13 -6 -14 -6 -13 -6 -13 -7 -13 -6 -13 -7 
-13 -6 -13 -7 -13 -7 -12 -7 -13 -7 -13 -7 -12 -8 -13 -7 
-12 -8 -12 -8 -12 -8 -12 -8 -13 -8 -11 -8 -12 -9 -12 -8 
-12 -9 -11 -9 -12 -8 -11 -9 -12 -10 -11 -9 -11 -9 -11 -10 
-11 -9 -11 -10 -11 -9 -11 -10 -10 -10 -11 -10 -10 -11 -10 -10 
-10 -10 -10 -11 -10 -10 -10 -11 -10 -11 -10 -11 -9 -11 -10 -11 
-9 -11 -9 -11 -9 -12 -9 -11 -9 -11 -9 -12 -8 -12 -9 -12 
-8 -11 -9 -12 -8 -12 -8 -13 -8 -12 -8 -12 -7 -12 -8 -13 
-7 -12 -7 -13 -8 -13 -7 -12 -7 -13 -6 -13 -7 -13 -6 -13 
-7 -13 -6 -13 -6 -13 -6 -14 -6 -13 -6 -13 -5 -14 -6 -13 
-5 -14 -5 -13 -5 -14 -5 -14 -5 -13 -5 -14 -4 -14 -5 -14 
-4 -14 -4 -14 -4 -14 5255 3207 300 MP stroke
-4 -14 -3 -14 -4 -14 -3 -14 -4 -14 -3 -14 -3 -15 -2 -14 
-3 -14 -3 -14 -2 -15 -2 -14 -2 -15 -2 -14 -2 -14 -2 -15 
-1 -14 -2 -15 -1 -14 -1 -15 -1 -14 -1 -15 0 -14 -1 -15 
0 -14 -1 -15 0 -15 5308 3595 28 MP stroke
gr

0 sg
%%IncludeResource: font Helvetica
/Helvetica /WindowsLatin1Encoding 120 FMSR

 951 6524 mt 
( ) s
6724  751 mt 
( ) s
1 sg
0 880 866 0 0 -880 5814 1649 4 MP
PP
-866 0 0 880 866 0 0 -880 5814 1649 5 MP stroke
4 w
DO
SO
6 w
0 sg
5814  769 mt 6680  769 L
5814 1649 mt 6680 1649 L
6680 1649 mt 6680  769 L
5814 1649 mt 5814  769 L
5814 1649 mt 6680 1649 L
5814 1649 mt 5814  769 L
5814  769 mt 6680  769 L
5814 1649 mt 6680 1649 L
6680 1649 mt 6680  769 L
5814 1649 mt 5814  769 L
6277  905 mt 
(z) s
%%IncludeResource: font Helvetica
/Helvetica /WindowsLatin1Encoding 96 FMSR

6337  965 mt 
(L) s
gs 5814 769 867 881 rc
gr

gs 5822 648 483 483 rc
80 W
c8
6063 889 PD
gr

c8
gs 5814 769 867 881 rc
gr

0 sg
%%IncludeResource: font Helvetica
/Helvetica /WindowsLatin1Encoding 120 FMSR

6277 1106 mt 
(VSWR) s
gs 5814 769 867 881 rc
gs 5822 822 483 483 rc
80 W
6063 1063 PD
gr

gr

6277 1253 mt 
(y) s
%%IncludeResource: font Helvetica
/Helvetica /WindowsLatin1Encoding 96 FMSR

6337 1313 mt 
(L) s
gs 5814 769 867 881 rc
gs 5822 996 483 483 rc
80 W
c9
6063 1237 PD
gr

c9
gr

c9
0 sg
%%IncludeResource: font Helvetica
/Helvetica /WindowsLatin1Encoding 120 FMSR

6277 1453 mt 
(a) s
gs 5814 769 867 881 rc
gr

gs 5822 1169 483 483 rc
80 W
c10
6063 1410 PD
gr

c10
gs 5814 769 867 881 rc
gr

0 sg
6277 1599 mt 
(x) s
gs 5814 769 867 881 rc
gr

gs 5822 1315 483 483 rc
80 W
c11
6063 1556 PD
gr

c11
gs 5814 769 867 881 rc
gr


end %%Color Dict

eplot
%%EndObject

epage
end

showpage

%%Trailer
%%EOF
