%!PS-Adobe-3.0 EPSF-3.0
%%Creator: MATLAB, The MathWorks, Inc. Version 8.1.0.604 (R2013a). Operating System: Microsoft Windows 8.
%%Title: ..\..\Images\T8_Q5_2.eps
%%CreationDate: 06/12/2015  11:19:18
%%DocumentNeededFonts: Helvetica
%%DocumentProcessColors: Cyan Magenta Yellow Black
%%LanguageLevel: 2
%%Pages: 1
%%BoundingBox:    88   264   505   577
%%EndComments

%%BeginProlog
% MathWorks dictionary
/MathWorks 160 dict begin
% definition operators
/bdef {bind def} bind def
/ldef {load def} bind def
/xdef {exch def} bdef
/xstore {exch store} bdef
% operator abbreviations
/c  /clip ldef
/cc /concat ldef
/cp /closepath ldef
/gr /grestore ldef
/gs /gsave ldef
/mt /moveto ldef
/np /newpath ldef
/cm /currentmatrix ldef
/sm /setmatrix ldef
/rm /rmoveto ldef
/rl /rlineto ldef
/s {show newpath} bdef
/sc {setcmykcolor} bdef
/sr /setrgbcolor ldef
/sg /setgray ldef
/w /setlinewidth ldef
/j /setlinejoin ldef
/cap /setlinecap ldef
/rc {rectclip} bdef
/rf {rectfill} bdef
% page state control
/pgsv () def
/bpage {/pgsv save def} bdef
/epage {pgsv restore} bdef
/bplot /gsave ldef
/eplot {stroke grestore} bdef
% orientation switch
/portraitMode 0 def /landscapeMode 1 def /rotateMode 2 def
% coordinate system mappings
/dpi2point 0 def
% font control
/FontSize 0 def
/FMS {/FontSize xstore findfont [FontSize 0 0 FontSize neg 0 0]
  makefont setfont} bdef
/ISOLatin1Encoding where {pop /WindowsLatin1Encoding 256 array bdef
ISOLatin1Encoding WindowsLatin1Encoding copy pop
/.notdef/.notdef/quotesinglbase/florin/quotedblbase/ellipsis/dagger
/daggerdbl/circumflex/perthousand/Scaron/guilsinglleft/OE/.notdef/.notdef
/.notdef/.notdef/quoteleft/quoteright/quotedblleft/quotedblright/bullet
/endash/emdash/tilde/trademark/scaron/guilsinglright/oe/.notdef/.notdef
/Ydieresis WindowsLatin1Encoding 128 32 getinterval astore pop}
{/WindowsLatin1Encoding StandardEncoding bdef} ifelse
/reencode {exch dup where {pop load} {pop StandardEncoding} ifelse
  exch dup 3 1 roll findfont dup length dict begin
  { 1 index /FID ne {def}{pop pop} ifelse } forall
  /Encoding exch def currentdict end definefont pop} bdef
/isroman {findfont /CharStrings get /Agrave known} bdef
/FMSR {3 1 roll 1 index dup isroman {reencode} {pop pop} ifelse
  exch FMS} bdef
/csm {1 dpi2point div -1 dpi2point div scale neg translate
 dup landscapeMode eq {pop -90 rotate}
  {rotateMode eq {90 rotate} if} ifelse} bdef
% line types: solid, dotted, dashed, dotdash
/SO { [] 0 setdash } bdef
/DO { [.5 dpi2point mul 4 dpi2point mul] 0 setdash } bdef
/DA { [6 dpi2point mul] 0 setdash } bdef
/DD { [.5 dpi2point mul 4 dpi2point mul 6 dpi2point mul 4
  dpi2point mul] 0 setdash } bdef
% macros for lines and objects
/L {lineto stroke} bdef
/MP {3 1 roll moveto 1 sub {rlineto} repeat} bdef
/AP {{rlineto} repeat} bdef
/PDlw -1 def
/W {/PDlw currentlinewidth def setlinewidth} def
/PP {closepath eofill} bdef
/DP {closepath stroke} bdef
/MR {4 -2 roll moveto dup  0 exch rlineto exch 0 rlineto
  neg 0 exch rlineto closepath} bdef
/FR {MR stroke} bdef
/PR {MR fill} bdef
/L1i {{currentfile picstr readhexstring pop} image} bdef
/tMatrix matrix def
/MakeOval {newpath tMatrix currentmatrix pop translate scale
0 0 1 0 360 arc tMatrix setmatrix} bdef
/FO {MakeOval stroke} bdef
/PO {MakeOval fill} bdef
/PD {currentlinewidth 2 div 0 360 arc fill
   PDlw -1 eq not {PDlw w /PDlw -1 def} if} def
/FA {newpath tMatrix currentmatrix pop translate scale
  0 0 1 5 -2 roll arc tMatrix setmatrix stroke} bdef
/PA {newpath tMatrix currentmatrix pop	translate 0 0 moveto scale
  0 0 1 5 -2 roll arc closepath tMatrix setmatrix fill} bdef
/FAn {newpath tMatrix currentmatrix pop translate scale
  0 0 1 5 -2 roll arcn tMatrix setmatrix stroke} bdef
/PAn {newpath tMatrix currentmatrix pop translate 0 0 moveto scale
  0 0 1 5 -2 roll arcn closepath tMatrix setmatrix fill} bdef
/vradius 0 def /hradius 0 def /lry 0 def
/lrx 0 def /uly 0 def /ulx 0 def /rad 0 def
/MRR {/vradius xdef /hradius xdef /lry xdef /lrx xdef /uly xdef
  /ulx xdef newpath tMatrix currentmatrix pop ulx hradius add uly
  vradius add translate hradius vradius scale 0 0 1 180 270 arc 
  tMatrix setmatrix lrx hradius sub uly vradius add translate
  hradius vradius scale 0 0 1 270 360 arc tMatrix setmatrix
  lrx hradius sub lry vradius sub translate hradius vradius scale
  0 0 1 0 90 arc tMatrix setmatrix ulx hradius add lry vradius sub
  translate hradius vradius scale 0 0 1 90 180 arc tMatrix setmatrix
  closepath} bdef
/FRR {MRR stroke } bdef
/PRR {MRR fill } bdef
/MlrRR {/lry xdef /lrx xdef /uly xdef /ulx xdef /rad lry uly sub 2 div def
  newpath tMatrix currentmatrix pop ulx rad add uly rad add translate
  rad rad scale 0 0 1 90 270 arc tMatrix setmatrix lrx rad sub lry rad
  sub translate rad rad scale 0 0 1 270 90 arc tMatrix setmatrix
  closepath} bdef
/FlrRR {MlrRR stroke } bdef
/PlrRR {MlrRR fill } bdef
/MtbRR {/lry xdef /lrx xdef /uly xdef /ulx xdef /rad lrx ulx sub 2 div def
  newpath tMatrix currentmatrix pop ulx rad add uly rad add translate
  rad rad scale 0 0 1 180 360 arc tMatrix setmatrix lrx rad sub lry rad
  sub translate rad rad scale 0 0 1 0 180 arc tMatrix setmatrix
  closepath} bdef
/FtbRR {MtbRR stroke } bdef
/PtbRR {MtbRR fill } bdef
/stri 6 array def /dtri 6 array def
/smat 6 array def /dmat 6 array def
/tmat1 6 array def /tmat2 6 array def /dif 3 array def
/asub {/ind2 exch def /ind1 exch def dup dup
  ind1 get exch ind2 get sub exch } bdef
/tri_to_matrix {
  2 0 asub 3 1 asub 4 0 asub 5 1 asub
  dup 0 get exch 1 get 7 -1 roll astore } bdef
/compute_transform {
  dmat dtri tri_to_matrix tmat1 invertmatrix 
  smat stri tri_to_matrix tmat2 concatmatrix } bdef
/ds {stri astore pop} bdef
/dt {dtri astore pop} bdef
/db {2 copy /cols xdef /rows xdef mul dup 3 mul string
  currentfile 
  3 index 0 eq {/ASCIIHexDecode filter}
  {/ASCII85Decode filter 3 index 2 eq {/RunLengthDecode filter} if }
  ifelse exch readstring pop
  dup 0 3 index getinterval /rbmap xdef
  dup 2 index dup getinterval /gbmap xdef
  1 index dup 2 mul exch getinterval /bbmap xdef pop pop}bdef
/it {gs np dtri aload pop moveto lineto lineto cp c
  cols rows 8 compute_transform 
  rbmap gbmap bbmap true 3 colorimage gr}bdef
/il {newpath moveto lineto stroke}bdef
currentdict end def
%%EndProlog

%%BeginSetup
MathWorks begin

0 cap

end
%%EndSetup

%%Page: 1 1
%%BeginPageSetup
%%PageBoundingBox:    88   264   505   577
MathWorks begin
bpage
%%EndPageSetup

%%BeginObject: obj1
bplot

/dpi2point 12 def
portraitMode 1056 6924 csm

    0     0  5005  3755 rc
85 dict begin %Colortable dictionary
/c0 { 0.000000 0.000000 0.000000 sr} bdef
/c1 { 1.000000 1.000000 1.000000 sr} bdef
/c2 { 0.900000 0.000000 0.000000 sr} bdef
/c3 { 0.000000 0.820000 0.000000 sr} bdef
/c4 { 0.000000 0.000000 0.800000 sr} bdef
/c5 { 0.910000 0.820000 0.320000 sr} bdef
/c6 { 1.000000 0.260000 0.820000 sr} bdef
/c7 { 0.000000 0.820000 0.820000 sr} bdef
c0
1 j
1 sg
   0    0 5006 3756 rf
6 w
gs 1260 282 2661 3061 rc
8 -83 13 -83 18 -81 24 -81 28 -78 33 -77 38 -74 43 -72 
47 -70 51 -66 55 -62 59 -59 63 -56 66 -51 69 -47 72 -42 
75 -38 76 -34 79 -28 80 -23 82 -18 82 -13 83 -8 84 -3 
84 3 83 8 82 13 82 18 80 23 79 28 76 34 75 38 
72 42 69 47 66 51 63 56 59 59 55 62 51 66 47 70 
43 72 38 74 33 77 28 78 24 81 18 81 13 83 8 83 
2 83 -2 84 -8 83 -13 83 -18 81 -24 81 -28 78 -33 77 
-38 74 -43 72 -47 70 -51 66 -55 62 -59 59 -63 56 -66 51 
-69 47 -72 42 -75 38 -76 34 -79 28 -80 23 -82 18 -82 13 
-83 8 -84 3 -84 -3 -83 -8 -82 -13 -82 -18 -80 -23 -79 -28 
-76 -34 -75 -38 -72 -42 -69 -47 -66 -51 -63 -56 -59 -59 -55 -62 
-51 -66 -47 -70 -43 -72 -38 -74 -33 -77 -28 -78 -24 -81 -18 -81 
-13 -83 -8 -83 -2 -84 3920 1812 100 MP
2 -83 1 AP
PP
0 sg
0 0 2 -83 8 -83 13 -83 18 -81 24 -81 28 -78 33 -77 
38 -74 43 -72 47 -70 51 -66 55 -62 59 -59 63 -56 66 -51 
69 -47 72 -42 75 -38 76 -34 79 -28 80 -23 82 -18 82 -13 
83 -8 84 -3 84 3 83 8 82 13 82 18 80 23 79 28 
76 34 75 38 72 42 69 47 66 51 63 56 59 59 55 62 
51 66 47 70 43 72 38 74 33 77 28 78 24 81 18 81 
13 83 8 83 2 83 -2 84 -8 83 -13 83 -18 81 -24 81 
-28 78 -33 77 -38 74 -43 72 -47 70 -51 66 -55 62 -59 59 
-63 56 -66 51 -69 47 -72 42 -75 38 -76 34 -79 28 -80 23 
-82 18 -82 13 -83 8 -84 3 -84 -3 -83 -8 -82 -13 -82 -18 
-80 -23 -79 -28 -76 -34 -75 -38 -72 -42 -69 -47 -66 -51 -63 -56 
-59 -59 -55 -62 -51 -66 -47 -70 -43 -72 -38 -74 -33 -77 -28 -78 
-24 -81 -18 -81 -13 -83 -8 -83 -2 -84 3920 1812 102 MP stroke
DO
12 w
0 -16 2 -17 3 -16 3 -17 5 -16 6 -15 6 -16 8 -15 
8 -14 10 -14 10 -13 11 -13 12 -11 12 -12 14 -10 13 -9 
15 -9 15 -7 15 -7 16 -6 16 -4 16 -4 17 -2 16 -2 
17 -1 17 1 16 2 17 2 16 4 16 4 16 6 15 7 
15 7 15 9 13 9 14 10 12 12 12 11 11 13 10 13 
10 14 8 14 8 15 6 16 6 15 5 16 3 17 3 16 
2 17 0 33 -2 17 -3 16 -3 17 -5 16 -6 15 -6 16 
-8 15 -8 14 -10 14 -10 13 -11 13 -12 11 -12 12 -14 10 
-13 9 -15 9 -15 7 -15 7 -16 6 -16 4 -16 4 -17 2 
-16 2 -17 1 -17 -1 -16 -2 -17 -2 -16 -4 -16 -4 -16 -6 
-15 -7 -15 -7 -15 -9 -13 -9 -14 -10 -12 -12 -12 -11 -11 -13 
-10 -13 -10 -14 -8 -14 -8 -15 -6 -16 -6 -15 -5 -16 -3 -17 
-3 -16 -2 -17 0 -17 2856 1812 100 MP stroke
gr

12 w
0 sg
DO
%%IncludeResource: font Helvetica
/Helvetica /WindowsLatin1Encoding 120 FMSR

2629 1508 mt 
(  0.2) s
gs 1260 282 2661 3061 rc
1 -33 3 -33 5 -33 8 -33 9 -32 11 -31 13 -31 16 -30 
17 -29 18 -27 21 -27 22 -25 24 -23 25 -23 26 -20 28 -19 
29 -17 29 -15 31 -13 32 -12 32 -9 32 -7 33 -5 34 -4 
33 -1 33 1 34 4 33 5 32 7 32 9 32 12 31 13 
29 15 29 17 28 19 26 20 25 23 24 23 22 25 21 27 
18 27 17 29 16 30 13 31 11 31 9 32 8 33 5 33 
3 33 1 33 -1 34 -3 33 -5 33 -8 33 -9 32 -11 31 
-13 31 -16 30 -17 29 -18 27 -21 27 -22 25 -24 23 -25 23 
-26 20 -28 19 -29 17 -29 15 -31 13 -32 12 -32 9 -32 7 
-33 5 -34 4 -33 1 -33 -1 -34 -4 -33 -5 -32 -7 -32 -9 
-32 -12 -31 -13 -29 -15 -29 -17 -28 -19 -26 -20 -25 -23 -24 -23 
-22 -25 -21 -27 -18 -27 -17 -29 -16 -30 -13 -31 -11 -31 -9 -32 
-8 -33 -5 -33 -3 -33 -1 -34 3122 1812 101 MP stroke
gr

2666 1244 mt 
(  0.4) s
gs 1260 282 2661 3061 rc
1 -50 5 -50 8 -49 11 -49 14 -48 17 -47 20 -46 22 -45 
26 -43 28 -42 31 -39 33 -38 36 -35 37 -34 40 -30 41 -28 
43 -26 45 -23 46 -20 47 -17 48 -14 49 -11 50 -7 50 -5 
50 -2 50 2 50 5 50 7 49 11 48 14 47 17 46 20 
45 23 43 26 41 28 40 30 37 34 36 35 33 38 31 39 
28 42 26 43 22 45 20 46 17 47 14 48 11 49 8 49 
5 50 1 50 -1 51 -5 50 -8 49 -11 49 -14 48 -17 47 
-20 46 -22 45 -26 43 -28 42 -31 39 -33 38 -36 35 -37 34 
-40 30 -41 28 -43 26 -45 23 -46 20 -47 17 -48 14 -49 11 
-50 7 -50 5 -50 2 -50 -2 -50 -5 -50 -7 -49 -11 -48 -14 
-47 -17 -46 -20 -45 -23 -43 -26 -41 -28 -40 -30 -37 -34 -36 -35 
-33 -38 -31 -39 -28 -42 -26 -43 -22 -45 -20 -46 -17 -47 -14 -48 
-11 -49 -8 -49 -5 -50 -1 -51 3388 1812 101 MP stroke
gr

2703  981 mt 
(  0.6) s
gs 1260 282 2661 3061 rc
2 -66 6 -67 11 -66 14 -65 19 -64 22 -63 27 -62 30 -59 
34 -58 38 -55 41 -53 44 -50 47 -47 51 -45 52 -41 56 -37 
57 -34 60 -31 61 -26 63 -23 64 -18 66 -15 66 -10 66 -7 
67 -2 67 2 66 7 66 10 66 15 64 18 63 23 61 26 
60 31 57 34 56 37 52 41 51 45 47 47 44 50 41 53 
38 55 34 58 30 59 27 62 22 63 19 64 14 65 11 66 
6 67 2 66 -2 67 -6 67 -11 66 -14 65 -19 64 -22 63 
-27 62 -30 59 -34 58 -38 55 -41 53 -44 50 -47 47 -51 45 
-52 41 -56 37 -57 34 -60 31 -61 26 -63 23 -64 18 -66 15 
-66 10 -66 7 -67 2 -67 -2 -66 -7 -66 -10 -66 -15 -64 -18 
-63 -23 -61 -26 -60 -31 -57 -34 -56 -37 -52 -41 -51 -45 -47 -47 
-44 -50 -41 -53 -38 -55 -34 -58 -30 -59 -27 -62 -22 -63 -19 -64 
-14 -65 -11 -66 -6 -67 -2 -67 3654 1812 101 MP stroke
gr

2740  717 mt 
(  0.8) s
gs 1260 282 2661 3061 rc
SO
2 -83 8 -83 13 -83 18 -81 24 -81 28 -78 33 -77 38 -74 
43 -72 47 -70 51 -66 55 -62 59 -59 63 -56 66 -51 69 -47 
72 -42 75 -38 76 -34 79 -28 80 -23 82 -18 82 -13 83 -8 
84 -3 84 3 83 8 82 13 82 18 80 23 79 28 76 34 
75 38 72 42 69 47 66 51 63 56 59 59 55 62 51 66 
47 70 43 72 38 74 33 77 28 78 24 81 18 81 13 83 
8 83 2 83 -2 84 -8 83 -13 83 -18 81 -24 81 -28 78 
-33 77 -38 74 -43 72 -47 70 -51 66 -55 62 -59 59 -63 56 
-66 51 -69 47 -72 42 -75 38 -76 34 -79 28 -80 23 -82 18 
-82 13 -83 8 -84 3 -84 -3 -83 -8 -82 -13 -82 -18 -80 -23 
-79 -28 -76 -34 -75 -38 -72 -42 -69 -47 -66 -51 -63 -56 -59 -59 
-55 -62 -51 -66 -47 -70 -43 -72 -38 -74 -33 -77 -28 -78 -24 -81 
-18 -81 -13 -83 -8 -83 -2 -84 3920 1812 101 MP stroke
gr

SO
2777  454 mt 
(  1) s
gs 1260 282 2661 3061 rc
DO
2304 -1331 1438 2477 2 MP stroke
1330 -2305 1925 2964 2 MP stroke
0 -2661 2590 3142 2 MP stroke
-1330 -2305 3255 2964 2 MP stroke
-2304 -1331 3742 2477 2 MP stroke
-2660 -1 3920 1812 2 MP stroke
gr

DO
3790 1122 mt 
(30) s
1223 2585 mt 
(210) s
3255  586 mt 
(60) s
1758 3121 mt 
(240) s
2523  390 mt 
(90) s
2490 3317 mt 
(270) s
1758  586 mt 
(120) s
3222 3121 mt 
(300) s
1223 1122 mt 
(150) s
3757 2585 mt 
(330) s
1027 1853 mt 
(180) s
4020 1854 mt 
(0) s
gs 1260 282 2661 3061 rc
SO
6 w
/c8 { 0.000000 0.000000 1.000000 sr} bdef
c8
0 6 -1 2 0 5 -1 3 0 3 -1 3 -1 4 -1 3 
-1 4 -1 5 -1 4 -1 5 -2 5 -1 5 -2 5 -2 6 
-2 5 -3 6 -2 6 -3 7 -3 6 -3 7 -3 7 -3 7 
-4 7 -4 7 -4 7 -4 8 -5 7 -5 8 -5 8 -5 8 
-5 8 -6 8 -6 8 -6 8 -7 8 -7 8 -7 9 -7 8 
-7 8 -8 9 -8 8 -8 9 -9 8 -8 8 -9 8 -9 9 
-10 8 -10 8 -10 8 -10 8 -10 8 -11 8 -11 7 -11 8 
-11 7 -12 8 -12 7 -12 7 -12 7 -12 6 -13 7 -13 6 
-13 6 -13 6 -13 6 -14 6 -13 5 -14 5 -14 5 -14 5 
-14 4 -15 4 -14 4 -15 4 -15 3 -15 4 -14 2 -15 3 
-16 2 -15 2 -15 2 -15 2 -15 1 -16 1 -15 0 -15 1 
-16 0 -15 -1 -16 0 -15 -1 -15 -2 -15 -1 -16 -2 -15 -2 
-15 -3 -15 -3 -15 -3 -14 -4 -15 -3 -15 -4 -14 -5 -14 -5 
-14 -5 -14 -5 -14 -6 -14 -6 -13 -6 -14 -7 -13 -6 -13 -7 
-12 -8 -13 -8 -12 -8 -12 -8 -11 -8 -12 -9 -11 -9 -11 -9 
-10 -10 -11 -10 -10 -10 -10 -10 -9 -10 -9 -11 -9 -11 -8 -11 
-8 -11 -8 -12 -7 -11 -8 -12 -6 -12 -7 -12 -6 -12 -5 -12 
-5 -13 -5 -13 -5 -12 -4 -13 -4 -13 -3 -13 -3 -13 -2 -13 
-3 -13 -1 -13 -2 -14 -1 -13 0 -53 1 -13 2 -14 2 -13 
2 -13 3 -13 3 -13 3 -13 4 -13 4 -13 4 -12 5 -13 
6 -13 5 -12 6 -12 7 -12 7 -12 7 -12 7 -11 8 -12 
8 -11 9 -11 8 -11 10 -10 9 -11 10 -10 10 -10 10 -10 
11 -9 11 -9 11 -9 11 -9 12 -9 12 -8 12 -8 13 -7 
12 -8 13 -7 13 -7 14 -6 13 -6 14 -6 14 -6 14 -5 
14 -5 14 -5 15 -4 14 -4 15 -4 15 -3 15 -4 15 -2 
15 -3 15 -2 15 -2 15 -1 16 -2 15 -1 15 0 16 -1 
15 0 15 1 16 0 15 1 15 2 16 1 15 2 15 2 
15 2 15 3 15 3 15 3 14 4 15 3 14 4 15 5 
14 4 14 5 14 5 14 5 14 5 13 6 13 6 14 6 
13 6 12 6 13 7 12 6 12 7 12 7 12 8 12 7 
11 7 11 8 11 8 10 7 11 8 10 8 10 8 10 8 
9 9 9 8 9 8 9 8 8 9 8 8 8 8 8 9 
7 8 8 9 7 8 6 8 7 8 6 9 6 8 5 8 
6 8 5 8 5 7 5 8 4 8 5 7 4 7 4 8 
3 7 4 6 3 7 3 7 3 6 2 7 3 6 2 5 
2 6 2 6 2 5 2 5 1 5 1 5 2 4 1 4 
1 4 0 4 1 3 1 4 0 3 1 2 0 5 1 2 
0 6 2590 1812 298 MP stroke
gr

6 w
c8
SO

end %%Color Dict

eplot
%%EndObject

epage
end

showpage

%%Trailer
%%EOF
